%!PS-Adobe-3.0
%%Creator: Basser Lout Version 3.24 (October 2000)
%%CreationDate: Wed Mar 22 15:21:24 2023
%%DocumentData: Binary
%%DocumentNeededResources: (atend)
%%DocumentSuppliedResources: (atend)
%%DocumentMedia: A4 595 842 0 white ()
%%PageOrder: Ascend
%%Pages: (atend)
%%BoundingBox: 0 0 595 842
%%EndComments

%%BeginProlog
%%BeginResource: procset LoutStartUp
/save_cp { currentpoint /cp_y exch def /cp_x exch def } def
/restore_cp { cp_x cp_y moveto } def
/outline { gsave 1 1 1 setrgbcolor dup show save_cp
  grestore true charpath stroke restore_cp } bind def
/m  { 3 1 roll moveto show } bind def
/mo { 3 1 roll moveto outline } bind def
/s  { exch currentpoint exch pop moveto show } bind def
/so { exch currentpoint exch pop moveto outline } bind def
/k  { exch neg 0 rmoveto show } bind def
/ko { exch neg 0 rmoveto outline } bind def
/r  { exch 0 rmoveto show } bind def
/ro { exch 0 rmoveto outline } bind def
/c  { gsave 3 1 roll rmoveto show grestore } bind def
/co { gsave 3 1 roll rmoveto outline grestore } bind def
/ul { gsave setlinewidth dup 3 1 roll
      moveto lineto stroke grestore } bind def
/in { 1440 mul } def
/cm { 567 mul } def
/pt { 20 mul } def
/em { 120 mul } def
/sp { louts mul } def
/vs { loutv mul } def
/ft { loutf mul } def
/dg {           } def

/LoutGraphic {
  /louts exch def
  /loutv exch def
  /loutf exch def
  /ymark exch def
  /xmark exch def
  /ysize exch def
  /xsize exch def
} def

/LoutGr2 { gsave translate LoutGraphic gsave } def

/LoutFont
{ findfont exch scalefont setfont
} bind def

/LoutRecode {
  { findfont dup length dict begin
    {1 index /FID ne {def} {pop pop} ifelse} forall
    /Encoding exch def
    currentdict end definefont pop
  }
  stopped pop
} bind def

/BeginEPSF {
  /LoutEPSFState save def
  /dict_count countdictstack def
  /op_count count 1 sub def
  userdict begin
  /showpage { } def
  0 setgray 0 setlinecap
  1 setlinewidth 0 setlinejoin
  10 setmiterlimit [] 0 setdash newpath
  /languagelevel where
  { pop languagelevel
    1 ne
    { false setstrokeadjust false setoverprint
    } if
  } if
} bind def

/EndEPSF {
  count op_count sub { pop } repeat
  countdictstack dict_count sub { end } repeat
  LoutEPSFState restore
} bind def
%%EndResource

%%BeginResource: procset LoutTblPrependGraphic
% @PrependGraphic file lout-3.24/include/tblf.lpg
%%%%%%%%%%%%%%%%%%%%%%%%%%%%%%%%%%%%%%%%%%%%%%%%%%%%%%%%%%%%%%%%%%%%%%
%                                                                    %
%  PostScript @SysPrependGraphic file for @Tbl  Jeffrey H. Kingston  %
%  Version 1.0                                             June 1998 %
%                                                                    %
%  To assist in avoiding name clashes, the names of all symbols      %
%  defined here begin with "ltbl".                                   %
%                                                                    %
%%%%%%%%%%%%%%%%%%%%%%%%%%%%%%%%%%%%%%%%%%%%%%%%%%%%%%%%%%%%%%%%%%%%%%

% painting (i.e. filling): - ltblwhite - (etc.)
/ltblnopaint		{			       } def
/ltblnochange		{ 			  fill } def
/ltbldarkblue		{ 0.0 0.0 0.5 setrgbcolor fill } def
/ltblblue		{ 0.0 0.0 1.0 setrgbcolor fill } def
/ltbllightblue		{ 0.5 0.5 1.0 setrgbcolor fill } def
/ltbldarkgreen		{ 0.0 0.5 0.0 setrgbcolor fill } def
/ltblgreen		{ 0.0 1.0 0.0 setrgbcolor fill } def
/ltbllightgreen	        { 0.5 1.0 0.5 setrgbcolor fill } def
/ltbldarkred		{ 0.5 0.0 0.0 setrgbcolor fill } def
/ltblred		{ 1.0 0.0 0.0 setrgbcolor fill } def
/ltbllightred		{ 1.0 0.5 0.5 setrgbcolor fill } def
/ltbldarkcyan		{ 0.0 0.5 0.5 setrgbcolor fill } def
/ltblcyan		{ 0.0 1.0 1.0 setrgbcolor fill } def
/ltbllightcyan		{ 0.5 1.0 1.0 setrgbcolor fill } def
/ltbldarkmagenta	{ 0.5 0.0 0.5 setrgbcolor fill } def
/ltblmagenta		{ 1.0 0.0 1.0 setrgbcolor fill } def
/ltbllightmagenta	{ 1.0 0.5 1.0 setrgbcolor fill } def
/ltbldarkyellow        	{ 0.5 0.5 0.0 setrgbcolor fill } def
/ltblyellow		{ 1.0 1.0 0.0 setrgbcolor fill } def
/ltbllightyellow	{ 1.0 1.0 0.5 setrgbcolor fill } def
/ltbldarkgray		{ 0.2 0.2 0.2 setrgbcolor fill } def
/ltblgray		{ 0.5 0.5 0.5 setrgbcolor fill } def
/ltbllightgray		{ 0.8 0.8 0.8 setrgbcolor fill } def
/ltbldarkgrey		{ 0.2 0.2 0.2 setrgbcolor fill } def
/ltblgrey		{ 0.5 0.5 0.5 setrgbcolor fill } def
/ltbllightgrey		{ 0.8 0.8 0.8 setrgbcolor fill } def
/ltblblack		{ 0.0 0.0 0.0 setrgbcolor fill } def
/ltblwhite		{ 1.0 1.0 1.0 setrgbcolor fill } def
%%EndResource

%%BeginResource: procset LoutBasicSetup
% @PrependGraphic file lout-3.24/include/bsf.lpg

% width height linethickness louteuro -
% draw a Euro symbol of this width and height with this line thickness
/louteuro {
  20 dict begin
    /eurothick exch def
    /euroheight exch def
    /eurowidth exch def
    /eurostrokewidth euroheight 0.8 mul def
    /eurostep eurothick 60 cos mul 60 sin div def
    /eurotheta 40 def

    % llx lly width thickness louteurobox -
    % draw angled box starting at (llx, lly) with given width and thickness
    /louteurobox
    {
      /euroboxthick exch def
      /euroboxwidth exch def
      newpath moveto euroboxwidth 0 rlineto
      eurostep euroboxthick rlineto
      euroboxwidth neg 0 rlineto closepath fill
    } def

    % lower cross stroke
    0 euroheight 2 div eurothick 1.5 mul sub
    eurostrokewidth eurothick louteurobox

    % upper cross stroke
    0 euroheight 2 div eurothick 0.5 mul add
    eurostrokewidth eurostep 2 mul add eurothick louteurobox

    % circular part
    /eurohctr eurowidth euroheight 2 div eurotheta cos mul sub def
    /eurovctr euroheight 2 div def
    newpath
    eurohctr eurovctr eurovctr eurotheta 350 eurotheta sub arc
    eurohctr eurovctr eurovctr eurothick sub 365 eurotheta sub eurotheta arcn
    closepath fill
  end
} def

% path for @FullWidthRule symbol
/LoutRule
{ 0 0 moveto xsize 0 lineto
} def

% path for @Box symbol
/LoutBox
{ 0 0 moveto xsize 0 lineto
  xsize ysize lineto 0 ysize lineto
  closepath
} def

% path for @CurveBox symbol
/LoutCurveBox
{ xmark 0 moveto
  xsize xmark sub xmark xmark 270 360 arc
  xsize xmark sub ysize xmark sub xmark 0 90 arc
  xmark ysize xmark sub xmark 90 180 arc
  xmark xmark xmark 180 270 arc
  closepath
} def

% path for @ShadowBox symbol
/LoutShadowBox
{ xmark 2 mul 0 moveto xsize 0 lineto
  xsize ysize xmark 2 mul sub lineto
  xsize xmark sub ysize xmark 2 mul sub lineto
  xsize xmark sub xmark lineto
  xmark 2 mul xmark lineto
  closepath
} def

% set up dictionary containing margin note data: parity LoutMargSet -
/LoutMargSet
{ /LoutMargDict 12 dict def
  LoutMargDict begin
    /parity exch def
    /matr matrix currentmatrix def
    /rightx xsize def
    /lefty ysize def   % highest allowable point for top of next left note
    /righty ysize def  % highest allowable point for top of next right note
    /max { 2 copy gt { pop } { exch pop } ifelse } def
    /min { 2 copy lt { pop } { exch pop } ifelse } def
  end
} def

%translate coordinate system for marginal notes:  type LoutMargShift -
% where type 0 is left margin, 1 is right margin, 2 is outer, 3 is inner
/LoutMargShift
{ LoutMargDict begin

    % y coordinate of top of note, in margin coords, before vertical adjust
    0 ysize transform matr itransform exch pop

    % decide whether left or right margin based on type and parity
    exch [ 0 1 parity 1 parity sub ] exch get 0 eq
    {
      % left margin: adjust top of note downwards if overlaps previous note
      lefty min

      % bottom of note is new lefty position and also translate position
      ysize sub dup /lefty exch def

      % want right edge of note at coordinate zero
      xsize neg exch
    }
    {
      % right margin: adjust top of note downwards if overlaps previous note
      righty min

      % bottom of note is new righty position and also translate position
      ysize sub dup /righty exch def

      % want left edge of note at coordinate rightx
      rightx exch
    } ifelse

    % stack now contains coord of bottom left corner in margin coordinates
    matr setmatrix translate
  end
} def

% create LoutPageDict with left, right, foot, top for @Place symbol users
/LoutPageSet
{
  /LoutPageDict 5 dict def
  LoutPageDict begin
    /matr matrix currentmatrix def
    /left 0 def
    /right xsize def
    /foot 0 def
    /top ysize def
  end

} def

%%EndResource

%%EndProlog

%%BeginSetup
%%BeginResource: encoding vec2
/vec2 [
/.notdef /.notdef /.notdef /.notdef /.notdef /.notdef /.notdef /.notdef
/.notdef /.notdef /.notdef /.notdef /.notdef /.notdef /.notdef /.notdef
/.notdef /.notdef /.notdef /.notdef /.notdef /.notdef /.notdef /.notdef
/.notdef /.notdef /.notdef /.notdef /.notdef /.notdef /.notdef /.notdef
/space /exclam /quotedbl /numbersign /dollar /percent /ampersand /quoteright
/parenleft /parenright /asterisk /plus /comma /hyphen /period /slash
/zero /one /two /three /four /five /six /seven
/eight /nine /colon /semicolon /less /equal /greater /question
/at /A /B /C /D /E /F /G
/H /I /J /K /L /M /N /O
/P /Q /R /S /T /U /V /W
/X /Y /Z /bracketleft /backslash /bracketright /asciicircum /underscore
/quoteleft /a /b /c /d /e /f /g
/h /i /j /k /l /m /n /o
/p /q /r /s /t /u /v /w
/x /y /z /braceleft /bar /braceright /asciitilde /.notdef
/quotesinglbase /quotedblbase /ellipsis /OE /oe /quotedblleft /quotedblright /fi
/fl /endash /emdash /bullet /dagger /daggerdbl /florin /fraction
/dotlessi /grave /acute /circumflex /tilde /macron /breve /dotaccent
/dieresis /.notdef /ring /cedilla /.notdef /hungarumlaut /ogonek /caron
/space /exclamdown /cent /sterling /currency /yen /brokenbar /section
/dieresis /copyright /ordfeminine /guillemotleft /logicalnot /hyphen /registered /macron
/degree /plusminus /twosuperior /threesuperior /acute /mu /paragraph /periodcentered
/cedilla /onesuperior /ordmasculine /guillemotright /onequarter /onehalf /threequarters /questiondown
/Agrave /Aacute /Acircumflex /Atilde /Adieresis /Aring /AE /Ccedilla
/Egrave /Eacute /Ecircumflex /Edieresis /Igrave /Iacute /Icircumflex /Idieresis
/Eth /Ntilde /Ograve /Oacute /Ocircumflex /Otilde /Odieresis /multiply
/Oslash /Ugrave /Uacute /Ucircumflex /Udieresis /Yacute /Thorn /germandbls
/agrave /aacute /acircumflex /atilde /adieresis /aring /ae /ccedilla
/egrave /eacute /ecircumflex /edieresis /igrave /iacute /icircumflex /idieresis
/eth /ntilde /ograve /oacute /ocircumflex /otilde /odieresis /divide
/oslash /ugrave /uacute /ucircumflex /udieresis /yacute /thorn /ydieresis
] def
%%EndResource

/pdfmark where {pop} {userdict /pdfmark /cleartomark load put} ifelse
%%EndSetup

%%Page: 1 1
%%BeginPageSetup
%%PageResources: font Times-Roman
%%+ font Times-Bold
/pgsave save def
%%IncludeResource: font Times-Roman
/Times-Romanfnt1 vec2 /Times-Roman LoutRecode
/fnt1 { /Times-Romanfnt1 LoutFont } def
%%IncludeResource: font Times-Bold
/Times-Boldfnt2 vec2 /Times-Bold LoutRecode
/fnt2 { /Times-Boldfnt2 LoutFont } def
0.0500 dup scale 10 setlinewidth
%%EndPageSetup

gsave
0 0 translate
240 fnt1 0.0 0.0 0.0 setrgbcolor 11900 16840 0 16840 240 288 60 LoutGraphic
gsave
LoutPageSet
grestore
gsave
0 16840 translate
0.0000 rotate
9066 0 0 0 240 288 60 1417 -1417 LoutGr2
1 LoutMargSet
grestore

grestore
9066 14006 0 13897 240 288 60 1417 -15423 LoutGr2
1 LoutMargSet
grestore
0 13843(adjust)m 631(1.20fx)s 1305(h)s 1(yphen)k 2067(adjust)s
2698(1.2fx)s 3252(h)s 1(yphen)k 440 fnt1 1451 13203(SimpleScalar)m
3903(T)s 35(ools)k 4961(Ov)s 6(ervie)k 11(w)k
6774(P)s 6(age)k 200 fnt1 3889 12398(Announcements)m 240 fnt1
0 11657(\213)m 320 fnt1 480 11205(Ne)m 8(w)k 1148(web)s
1751(pages!)s 240 fnt1 2615 11657(The)m 3043(ne)s 6(w)k
3490(domain)s 4265(and)s 4669(mailing)s 5452(lists)s 5887(are)s
6234(just)s 6639(about)s 7231(up!)s 
[ /Dest /LOUT7_1492_large_lout_1 /DEST pdfmark
9066 10 0 10 240 288 60 0 9275 LoutGr2
LoutRule stroke
grestore

grestore
200 fnt1 480 8199(SimpleScalar)m
1590(Ov)s 3(ervie)k 5(w)k 240 fnt2 2422 8568(What)m
3054(is)s 3267(the)s 3641(SimpleScalar)s 5053(tool)s 5493(set?)s
240 fnt1 480 7668(This)m 989(tool)s 1450(set)s 1809(consists)s
2651(of)s 2956(compiler)s 9(,)k 3936(assembler)s 9(,)k
5023(link)s 2(er)k 9(,)k 5710(simulation,)s 6860(and)s
7298(visualization)s 8610(tools)s 0 7380(for)m 355(the)s 721(SimpleScalar)s
2072(architecture.)s 3320(W)s 9(ith)k 3864(this)s 4277(tool)s
4722(set,)s 5112(the)s 5478(user)s 5954(can)s 6360(simulate)s
7243(real)s 7673(programs)s 8645(on)s 8960(a)s 0 7092(range)m
609(of)s 903(modern)s 1714(processors)s 2796(and)s 3223(systems,)s
4110(using)s 4705(f)s 2(ast)k 5129(e)s 3(x)k 3(ecution-dri)k 6(v)k 3(en)k
6814(simulation.)s 7950(W)s 19(e)k 8342(pro)s 3(vide)k
0 6804(simulators)m 1063(ranging)s 1865(from)s 2407(a)s 2591(f)s 2(ast)k
3010(functional)s 4052(simulator)s 5032(to)s 5289(a)s 5472(detailed,)s
6353(out-of-order)s 7598(issue)s 8150(processor)s 0 6516(that)m 414(supports)s
1271(non-blocking)s 2596(caches,)s 3336(speculati)s 6(v)k 3(e)k
4453(e)s 3(x)k 3(ecution,)k 5479(and)s 5879(state-of-the-art)s
7350(branch)s 8053(prediction.)s 0 6228(The)m 427(tool)s 852(set)s
1176(is)s 1384(partly)s 1994(deri)s 6(v)k 3(ed)k
2758(from)s 3281(the)s 3627(GNU)s 4201(softw)s 2(are)k
5075(de)s 6(v)k 3(elopment)k 6361(tools.)s 6928(It)s
7132(pro)s 3(vides)k 8002(researchers)s 0 5940(with)m 482(an)s
765(easily)s 1376(e)s 3(xtensible,)k 2449(portable,)s 3339(high-performance)s
5107(test)s 5498(bed)s 5902(for)s 6240(systems)s 7048(design.)s
240 fnt2 480 5565(Who)m 1028(wr)s 4(ote)k 1664(the)s
2038(SimpleScalar)s 3450(tool)s 3890(set?)s 240 fnt1 480 5192(Much)m
1093(of)s 1360(the)s 1704(compiler)s 2610(tools)s 3122(are)s
3465(simply)s 4167(ports)s 4692(of)s 4959(the)s 5304(GNU)s
5875(softw)s 2(are)k 6747(de)s 6(v)k 3(elopment)k
8031(tools)s 8543(to)s 8778(the)s 0 4904(SimpleScalar)m 1319(architecture.)s
2534(The)s 2947(ports)s 3461(as)s 3697(well)s 4148(as)s
4383(the)s 4716(simulators)s 5747(were)s 6253(written)s 6971(by)s
7250(T)s 19(odd)k 7780(Austin)s 8460(\(while)s 0 4616(he)m
312(w)s 2(as)k 764(a)s 961(Ph.D.)s 1581(student)s
2363(at)s 2626(the)s 3004(Uni)s 6(v)k 3(ersity)k
4089(of)s 4391(W)s 9(isconsin-Madison,)k 6446(w)s 2(orking)k
7326(in)s 7600(the)s 7979(Multiscalar)s 0 4328(Group)m 685(under)s
1311(Guri)s 1311 2257 4304 12 ul
1824(Sohi)s 2338(;)s 2471(he)s 2774(is)s
3005(no)s 6(w)k 3487(with)s 3990(Intel)s 4503(Corp.\).)s
5246(The)s 5695(tool)s 6143(set)s 6489(is)s 6720(no)s 6(w)k
7202(supported)s 8225(by)s 8540 9066 4304 12 ul
8540(Doug)s 0 660 4016 12 ul
0 4040(Bur)m 4(ger)k
707(,)s 801(who)s 1254(wrote)s 1841(the)s 2176(documentation)s
3642(for)s 3967(both)s 4437(releases)s 5230(1.0)s 5572(and)s
5963(2.0.)s 6354(Contrib)s 4(utions)k 7704(ha)s 4(v)k 3(e)k
8192(also)s 8617(been)s 0 3752(made)m 574(by)s 868(Manoj)s
1533(Franklin,)s 2450(Scott)s 2450 3675 3728 12 ul
3001(Breach)s 3735(,)s 3842(and)s
4246(K)s 6(e)k 6(vin)k 4876(Skadron.)s 480 3378(The)m
899(de)s 6(v)k 3(elopment)k 2176(of)s 2437(this)s
2823(code)s 3321(w)s 2(as)k 3732(originally)s 4706(supported)s
5698(by)s 5982(grants)s 6607(from)s 7121(the)s 7459(National)s
8327(Science)s 0 3090(F)m 3(oundation)k 1177(\(grant)s 1839(CCR-9303030)s
3325(plus)s 3807(softw)s 2(are)k 4715(capitalization)s 6090(supplement\))s
7353(and)s 7789(the)s 8169(Of\207ce)s 8855(of)s 0 2802(Na)m 4(v)k 6(al)k
678(Research)s 1674(\(grant)s 2367(N00014-93-1-0465\).)s 4463(Man)s 3(y)k
5136(sources,)s 6023(all)s 6379(appreciated,)s 7650(currently)s 8629(fund)s
0 2514(de)m 6(v)k 3(elopment)k 1287(on)s 1584(se)s 6(v)k 3(eral)k
2306(fronts.)s 240 fnt2 480 2139(On)m 855(which)s 1521(platf)s 6(orms)k
2564(does)s 3070(it)s 3275(run?)s 240 fnt1 480 1766(SimpleScalar)m
1860(should)s 2605(port)s 3098(easily)s 3757(to)s 4044(an)s 3(y)k
4489(32-bit)s 5167(\210a)s 4(v)k 4(or)k 5825(of)s
6144(UNIX,)s 6897(particularly)s 8099(those)s 8708(that)s 0 1478(support)m
782(POSIX-compliant)s 2573(syscalls.)s 3425(The)s 3858(tools)s 4378(ha)s 4(v)k 3(e)k
4884(been)s 5398(installed)s 6270(\(and)s 6757(should)s 7459(cleanly)s
8208(b)s 4(uild\))k 8829(on)s 0 1190(the)m 348(follo)s 6(wing)k
1325(systems:)s 
grestore
0 0 0 0 240 288 60 1417 -15423 LoutGr2
1 LoutMargSet
grestore

grestore

grestore

grestore

pgsave restore
showpage

%%Page: 2 2
%%BeginPageSetup
%%PageResources: font Times-Roman
%%+ font Times-Bold
/pgsave save def
%%IncludeResource: font Times-Roman
/Times-Romanfnt1 vec2 /Times-Roman LoutRecode
/fnt1 { /Times-Romanfnt1 LoutFont } def
%%IncludeResource: font Times-Bold
/Times-Boldfnt2 vec2 /Times-Bold LoutRecode
/fnt2 { /Times-Boldfnt2 LoutFont } def
0.0500 dup scale 10 setlinewidth
%%EndPageSetup
gsave
0 0 translate
240 fnt1 0.0 0.0 0.0 setrgbcolor 11900 16840 0 16840 240 288 60 LoutGraphic
gsave
LoutPageSet
grestore
gsave
0 16840 translate
0.0000 rotate
5765 -1579(-)m 5893(2)s 6067(-)s 9066 13419 0 13419 240 288 60 1417 -15423 LoutGr2
0 LoutMargSet
grestore
12 384 0 384 240 288 60 480 12747 LoutGr2
LoutBox ltblblack
grestore

grestore
12 384 0 384 240 288 60 2055 12747 LoutGr2
LoutBox ltblblack
grestore

grestore
1575 12 0 12 240 288 60 480 13119 LoutGr2
LoutBox ltblblack
grestore

grestore
1575 12 0 12 240 288 60 480 12735 LoutGr2
LoutBox ltblblack
grestore

grestore
12 12 0 12 240 288 60 2055 13119 LoutGr2
LoutBox ltblblack
grestore

grestore
12 12 0 12 240 288 60 2055 12735 LoutGr2
LoutBox ltblblack
grestore

grestore
240 fnt2 624 12884(Ar)m 4(chitectur)k 4(e)k
gsave
2055 12747 translate
240 fnt1 12 384 0 384 240 288 60 LoutGraphic
gsave
LoutBox ltblblack
grestore

grestore
gsave
4721 12747 translate
240 fnt1 12 384 0 384 240 288 60 LoutGraphic
gsave
LoutBox ltblblack
grestore

grestore
gsave
2055 13119 translate
240 fnt1 2666 12 0 12 240 288 60 LoutGraphic
gsave
LoutBox ltblblack
grestore

grestore
gsave
2055 12735 translate
240 fnt1 2666 12 0 12 240 288 60 LoutGraphic
gsave
LoutBox ltblblack
grestore

grestore
gsave
4721 13119 translate
240 fnt1 12 12 0 12 240 288 60 LoutGraphic
gsave
LoutBox ltblblack
grestore

grestore
gsave
4721 12735 translate
240 fnt1 12 12 0 12 240 288 60 LoutGraphic
gsave
LoutBox ltblblack
grestore

grestore
2199(Operating)s 3304(System)s gsave
4721 12747 translate
240 fnt1 12 384 0 384 240 288 60 LoutGraphic
gsave
LoutBox ltblblack
grestore

grestore
gsave
5976 12747 translate
240 fnt1 12 384 0 384 240 288 60 LoutGraphic
gsave
LoutBox ltblblack
grestore

grestore
gsave
4721 13119 translate
240 fnt1 1255 12 0 12 240 288 60 LoutGraphic
gsave
LoutBox ltblblack
grestore

grestore
gsave
4721 12735 translate
240 fnt1 1255 12 0 12 240 288 60 LoutGraphic
gsave
LoutBox ltblblack
grestore

grestore
gsave
5976 13119 translate
240 fnt1 12 12 0 12 240 288 60 LoutGraphic
gsave
LoutBox ltblblack
grestore

grestore
gsave
5976 12735 translate
240 fnt1 12 12 0 12 240 288 60 LoutGraphic
gsave
LoutBox ltblblack
grestore

grestore
4865(Compiler)s gsave
5976 12747 translate
240 fnt1 12 384 0 384 240 288 60 LoutGraphic
gsave
LoutBox ltblblack
grestore

grestore
gsave
6264 12747 translate
240 fnt1 12 384 0 384 240 288 60 LoutGraphic
gsave
LoutBox ltblblack
grestore

grestore
gsave
5976 13119 translate
240 fnt1 288 12 0 12 240 288 60 LoutGraphic
gsave
LoutBox ltblblack
grestore

grestore
gsave
5976 12735 translate
240 fnt1 288 12 0 12 240 288 60 LoutGraphic
gsave
LoutBox ltblblack
grestore

grestore
gsave
6264 13119 translate
240 fnt1 12 12 0 12 240 288 60 LoutGraphic
gsave
LoutBox ltblblack
grestore

grestore
gsave
6264 12735 translate
240 fnt1 12 12 0 12 240 288 60 LoutGraphic
gsave
LoutBox ltblblack
grestore

grestore
gsave
6264 12747 translate
240 fnt1 12 384 0 384 240 288 60 LoutGraphic
gsave
LoutBox ltblblack
grestore

grestore
gsave
6552 12747 translate
240 fnt1 12 384 0 384 240 288 60 LoutGraphic
gsave
LoutBox ltblblack
grestore

grestore
gsave
6264 13119 translate
240 fnt1 288 12 0 12 240 288 60 LoutGraphic
gsave
LoutBox ltblblack
grestore

grestore
gsave
6264 12735 translate
240 fnt1 288 12 0 12 240 288 60 LoutGraphic
gsave
LoutBox ltblblack
grestore

grestore
gsave
6552 13119 translate
240 fnt1 12 12 0 12 240 288 60 LoutGraphic
gsave
LoutBox ltblblack
grestore

grestore
gsave
6552 12735 translate
240 fnt1 12 12 0 12 240 288 60 LoutGraphic
gsave
LoutBox ltblblack
grestore

grestore
gsave
6552 12747 translate
240 fnt1 12 384 0 384 240 288 60 LoutGraphic
gsave
LoutBox ltblblack
grestore

grestore
gsave
9066 12747 translate
240 fnt1 12 384 0 384 240 288 60 LoutGraphic
gsave
LoutBox ltblblack
grestore

grestore
gsave
6552 13119 translate
240 fnt1 2514 12 0 12 240 288 60 LoutGraphic
gsave
LoutBox ltblblack
grestore

grestore
gsave
6552 12735 translate
240 fnt1 2514 12 0 12 240 288 60 LoutGraphic
gsave
LoutBox ltblblack
grestore

grestore
gsave
9066 13119 translate
240 fnt1 12 12 0 12 240 288 60 LoutGraphic
gsave
LoutBox ltblblack
grestore

grestore
gsave
9066 12735 translate
240 fnt1 12 12 0 12 240 288 60 LoutGraphic
gsave
LoutBox ltblblack
grestore

grestore
gsave
480 12363 translate
240 fnt1 12 384 0 384 240 288 60 LoutGraphic
gsave
LoutBox ltblblack
grestore

grestore
gsave
2055 12363 translate
240 fnt1 12 384 0 384 240 288 60 LoutGraphic
gsave
LoutBox ltblblack
grestore

grestore
gsave
480 12735 translate
240 fnt1 1575 12 0 12 240 288 60 LoutGraphic
gsave
LoutBox ltblblack
grestore

grestore
gsave
480 12351 translate
240 fnt1 1575 12 0 12 240 288 60 LoutGraphic
gsave
LoutBox ltblblack
grestore

grestore
gsave
2055 12735 translate
240 fnt1 12 12 0 12 240 288 60 LoutGraphic
gsave
LoutBox ltblblack
grestore

grestore
gsave
2055 12351 translate
240 fnt1 12 12 0 12 240 288 60 LoutGraphic
gsave
LoutBox ltblblack
grestore

grestore
240 fnt1 624 12501(x86)m
12 384 0 384 240 288 60 2055 12363 LoutGr2
LoutBox ltblblack
grestore

grestore
12 384 0 384 240 288 60 4721 12363 LoutGr2
LoutBox ltblblack
grestore

grestore
2666 12 0 12 240 288 60 2055 12735 LoutGr2
LoutBox ltblblack
grestore

grestore
2666 12 0 12 240 288 60 2055 12351 LoutGr2
LoutBox ltblblack
grestore

grestore
12 12 0 12 240 288 60 4721 12735 LoutGr2
LoutBox ltblblack
grestore

grestore
12 12 0 12 240 288 60 4721 12351 LoutGr2
LoutBox ltblblack
grestore

grestore
2199(Free)s 2679(BSD)s 3197(2.2)s 12 384 0 384 240 288 60 4721 12363 LoutGr2
LoutBox ltblblack
grestore

grestore
12 384 0 384 240 288 60 5976 12363 LoutGr2
LoutBox ltblblack
grestore

grestore
1255 12 0 12 240 288 60 4721 12735 LoutGr2
LoutBox ltblblack
grestore

grestore
1255 12 0 12 240 288 60 4721 12351 LoutGr2
LoutBox ltblblack
grestore

grestore
12 12 0 12 240 288 60 5976 12735 LoutGr2
LoutBox ltblblack
grestore

grestore
12 12 0 12 240 288 60 5976 12351 LoutGr2
LoutBox ltblblack
grestore

grestore
4865(gcc)s 12 384 0 384 240 288 60 5976 12363 LoutGr2
LoutBox ltblblack
grestore

grestore
12 384 0 384 240 288 60 6264 12363 LoutGr2
LoutBox ltblblack
grestore

grestore
288 12 0 12 240 288 60 5976 12735 LoutGr2
LoutBox ltblblack
grestore

grestore
288 12 0 12 240 288 60 5976 12351 LoutGr2
LoutBox ltblblack
grestore

grestore
12 12 0 12 240 288 60 6264 12735 LoutGr2
LoutBox ltblblack
grestore

grestore
12 12 0 12 240 288 60 6264 12351 LoutGr2
LoutBox ltblblack
grestore

grestore
12 384 0 384 240 288 60 6264 12363 LoutGr2
LoutBox ltblblack
grestore

grestore
12 384 0 384 240 288 60 6552 12363 LoutGr2
LoutBox ltblblack
grestore

grestore
288 12 0 12 240 288 60 6264 12735 LoutGr2
LoutBox ltblblack
grestore

grestore
288 12 0 12 240 288 60 6264 12351 LoutGr2
LoutBox ltblblack
grestore

grestore
12 12 0 12 240 288 60 6552 12735 LoutGr2
LoutBox ltblblack
grestore

grestore
12 12 0 12 240 288 60 6552 12351 LoutGr2
LoutBox ltblblack
grestore

grestore
12 384 0 384 240 288 60 6552 12363 LoutGr2
LoutBox ltblblack
grestore

grestore
12 384 0 384 240 288 60 9066 12363 LoutGr2
LoutBox ltblblack
grestore

grestore
2514 12 0 12 240 288 60 6552 12735 LoutGr2
LoutBox ltblblack
grestore

grestore
2514 12 0 12 240 288 60 6552 12351 LoutGr2
LoutBox ltblblack
grestore

grestore
12 12 0 12 240 288 60 9066 12735 LoutGr2
LoutBox ltblblack
grestore

grestore
12 12 0 12 240 288 60 9066 12351 LoutGr2
LoutBox ltblblack
grestore

grestore
12 384 0 384 240 288 60 480 11979 LoutGr2
LoutBox ltblblack
grestore

grestore
12 384 0 384 240 288 60 2055 11979 LoutGr2
LoutBox ltblblack
grestore

grestore
1575 12 0 12 240 288 60 480 12351 LoutGr2
LoutBox ltblblack
grestore

grestore
1575 12 0 12 240 288 60 480 11967 LoutGr2
LoutBox ltblblack
grestore

grestore
12 12 0 12 240 288 60 2055 12351 LoutGr2
LoutBox ltblblack
grestore

grestore
12 12 0 12 240 288 60 2055 11967 LoutGr2
LoutBox ltblblack
grestore

grestore
624 12117(x86)m
12 384 0 384 240 288 60 2055 11979 LoutGr2
LoutBox ltblblack
grestore

grestore
12 384 0 384 240 288 60 4721 11979 LoutGr2
LoutBox ltblblack
grestore

grestore
2666 12 0 12 240 288 60 2055 12351 LoutGr2
LoutBox ltblblack
grestore

grestore
2666 12 0 12 240 288 60 2055 11967 LoutGr2
LoutBox ltblblack
grestore

grestore
12 12 0 12 240 288 60 4721 12351 LoutGr2
LoutBox ltblblack
grestore

grestore
12 12 0 12 240 288 60 4721 11967 LoutGr2
LoutBox ltblblack
grestore

grestore
2199(CygW)s 9(in32/W)k 9(indo)k 6(ws)k 4262(NT)s
12 384 0 384 240 288 60 4721 11979 LoutGr2
LoutBox ltblblack
grestore

grestore
12 384 0 384 240 288 60 5976 11979 LoutGr2
LoutBox ltblblack
grestore

grestore
1255 12 0 12 240 288 60 4721 12351 LoutGr2
LoutBox ltblblack
grestore

grestore
1255 12 0 12 240 288 60 4721 11967 LoutGr2
LoutBox ltblblack
grestore

grestore
12 12 0 12 240 288 60 5976 12351 LoutGr2
LoutBox ltblblack
grestore

grestore
12 12 0 12 240 288 60 5976 11967 LoutGr2
LoutBox ltblblack
grestore

grestore
4865(gcc)s 12 384 0 384 240 288 60 5976 11979 LoutGr2
LoutBox ltblblack
grestore

grestore
12 384 0 384 240 288 60 6264 11979 LoutGr2
LoutBox ltblblack
grestore

grestore
288 12 0 12 240 288 60 5976 12351 LoutGr2
LoutBox ltblblack
grestore

grestore
288 12 0 12 240 288 60 5976 11967 LoutGr2
LoutBox ltblblack
grestore

grestore
12 12 0 12 240 288 60 6264 12351 LoutGr2
LoutBox ltblblack
grestore

grestore
12 12 0 12 240 288 60 6264 11967 LoutGr2
LoutBox ltblblack
grestore

grestore
12 384 0 384 240 288 60 6264 11979 LoutGr2
LoutBox ltblblack
grestore

grestore
12 384 0 384 240 288 60 6552 11979 LoutGr2
LoutBox ltblblack
grestore

grestore
288 12 0 12 240 288 60 6264 12351 LoutGr2
LoutBox ltblblack
grestore

grestore
288 12 0 12 240 288 60 6264 11967 LoutGr2
LoutBox ltblblack
grestore

grestore
12 12 0 12 240 288 60 6552 12351 LoutGr2
LoutBox ltblblack
grestore

grestore
12 12 0 12 240 288 60 6552 11967 LoutGr2
LoutBox ltblblack
grestore

grestore
12 384 0 384 240 288 60 6552 11979 LoutGr2
LoutBox ltblblack
grestore

grestore
12 384 0 384 240 288 60 9066 11979 LoutGr2
LoutBox ltblblack
grestore

grestore
2514 12 0 12 240 288 60 6552 12351 LoutGr2
LoutBox ltblblack
grestore

grestore
2514 12 0 12 240 288 60 6552 11967 LoutGr2
LoutBox ltblblack
grestore

grestore
12 12 0 12 240 288 60 9066 12351 LoutGr2
LoutBox ltblblack
grestore

grestore
12 12 0 12 240 288 60 9066 11967 LoutGr2
LoutBox ltblblack
grestore

grestore
12 384 0 384 240 288 60 480 11595 LoutGr2
LoutBox ltblblack
grestore

grestore
12 384 0 384 240 288 60 2055 11595 LoutGr2
LoutBox ltblblack
grestore

grestore
1575 12 0 12 240 288 60 480 11967 LoutGr2
LoutBox ltblblack
grestore

grestore
1575 12 0 12 240 288 60 480 11583 LoutGr2
LoutBox ltblblack
grestore

grestore
12 12 0 12 240 288 60 2055 11967 LoutGr2
LoutBox ltblblack
grestore

grestore
12 12 0 12 240 288 60 2055 11583 LoutGr2
LoutBox ltblblack
grestore

grestore
624 11733(x86)m 12 384 0 384 240 288 60 2055 11595 LoutGr2
LoutBox ltblblack
grestore

grestore
12 384 0 384 240 288 60 4721 11595 LoutGr2
LoutBox ltblblack
grestore

grestore
2666 12 0 12 240 288 60 2055 11967 LoutGr2
LoutBox ltblblack
grestore

grestore
2666 12 0 12 240 288 60 2055 11583 LoutGr2
LoutBox ltblblack
grestore

grestore
12 12 0 12 240 288 60 4721 11967 LoutGr2
LoutBox ltblblack
grestore

grestore
12 12 0 12 240 288 60 4721 11583 LoutGr2
LoutBox ltblblack
grestore

grestore
2199(Linux1.3)s 12 384 0 384 240 288 60 4721 11595 LoutGr2
LoutBox ltblblack
grestore

grestore
12 384 0 384 240 288 60 5976 11595 LoutGr2
LoutBox ltblblack
grestore

grestore
1255 12 0 12 240 288 60 4721 11967 LoutGr2
LoutBox ltblblack
grestore

grestore
1255 12 0 12 240 288 60 4721 11583 LoutGr2
LoutBox ltblblack
grestore

grestore
12 12 0 12 240 288 60 5976 11967 LoutGr2
LoutBox ltblblack
grestore

grestore
12 12 0 12 240 288 60 5976 11583 LoutGr2
LoutBox ltblblack
grestore

grestore
4865(gcc)s 12 384 0 384 240 288 60 5976 11595 LoutGr2
LoutBox ltblblack
grestore

grestore
12 384 0 384 240 288 60 6264 11595 LoutGr2
LoutBox ltblblack
grestore

grestore
288 12 0 12 240 288 60 5976 11967 LoutGr2
LoutBox ltblblack
grestore

grestore
288 12 0 12 240 288 60 5976 11583 LoutGr2
LoutBox ltblblack
grestore

grestore
12 12 0 12 240 288 60 6264 11967 LoutGr2
LoutBox ltblblack
grestore

grestore
12 12 0 12 240 288 60 6264 11583 LoutGr2
LoutBox ltblblack
grestore

grestore
12 384 0 384 240 288 60 6264 11595 LoutGr2
LoutBox ltblblack
grestore

grestore
12 384 0 384 240 288 60 6552 11595 LoutGr2
LoutBox ltblblack
grestore

grestore
288 12 0 12 240 288 60 6264 11967 LoutGr2
LoutBox ltblblack
grestore

grestore
288 12 0 12 240 288 60 6264 11583 LoutGr2
LoutBox ltblblack
grestore

grestore
12 12 0 12 240 288 60 6552 11967 LoutGr2
LoutBox ltblblack
grestore

grestore
12 12 0 12 240 288 60 6552 11583 LoutGr2
LoutBox ltblblack
grestore

grestore
12 384 0 384 240 288 60 6552 11595 LoutGr2
LoutBox ltblblack
grestore

grestore
12 384 0 384 240 288 60 9066 11595 LoutGr2
LoutBox ltblblack
grestore

grestore
2514 12 0 12 240 288 60 6552 11967 LoutGr2
LoutBox ltblblack
grestore

grestore
2514 12 0 12 240 288 60 6552 11583 LoutGr2
LoutBox ltblblack
grestore

grestore
12 12 0 12 240 288 60 9066 11967 LoutGr2
LoutBox ltblblack
grestore

grestore
12 12 0 12 240 288 60 9066 11583 LoutGr2
LoutBox ltblblack
grestore

grestore
12 384 0 384 240 288 60 480 11211 LoutGr2
LoutBox ltblblack
grestore

grestore
12 384 0 384 240 288 60 2055 11211 LoutGr2
LoutBox ltblblack
grestore

grestore
1575 12 0 12 240 288 60 480 11583 LoutGr2
LoutBox ltblblack
grestore

grestore
1575 12 0 12 240 288 60 480 11199 LoutGr2
LoutBox ltblblack
grestore

grestore
12 12 0 12 240 288 60 2055 11583 LoutGr2
LoutBox ltblblack
grestore

grestore
12 12 0 12 240 288 60 2055 11199 LoutGr2
LoutBox ltblblack
grestore

grestore
624 11349(x86)m
12 384 0 384 240 288 60 2055 11211 LoutGr2
LoutBox ltblblack
grestore

grestore
12 384 0 384 240 288 60 4721 11211 LoutGr2
LoutBox ltblblack
grestore

grestore
2666 12 0 12 240 288 60 2055 11583 LoutGr2
LoutBox ltblblack
grestore

grestore
2666 12 0 12 240 288 60 2055 11199 LoutGr2
LoutBox ltblblack
grestore

grestore
12 12 0 12 240 288 60 4721 11583 LoutGr2
LoutBox ltblblack
grestore

grestore
12 12 0 12 240 288 60 4721 11199 LoutGr2
LoutBox ltblblack
grestore

grestore
2199(Solaris2)s 12 384 0 384 240 288 60 4721 11211 LoutGr2
LoutBox ltblblack
grestore

grestore
12 384 0 384 240 288 60 5976 11211 LoutGr2
LoutBox ltblblack
grestore

grestore
1255 12 0 12 240 288 60 4721 11583 LoutGr2
LoutBox ltblblack
grestore

grestore
1255 12 0 12 240 288 60 4721 11199 LoutGr2
LoutBox ltblblack
grestore

grestore
12 12 0 12 240 288 60 5976 11583 LoutGr2
LoutBox ltblblack
grestore

grestore
12 12 0 12 240 288 60 5976 11199 LoutGr2
LoutBox ltblblack
grestore

grestore
4865(gcc)s 12 384 0 384 240 288 60 5976 11211 LoutGr2
LoutBox ltblblack
grestore

grestore
12 384 0 384 240 288 60 6264 11211 LoutGr2
LoutBox ltblblack
grestore

grestore
288 12 0 12 240 288 60 5976 11583 LoutGr2
LoutBox ltblblack
grestore

grestore
288 12 0 12 240 288 60 5976 11199 LoutGr2
LoutBox ltblblack
grestore

grestore
12 12 0 12 240 288 60 6264 11583 LoutGr2
LoutBox ltblblack
grestore

grestore
12 12 0 12 240 288 60 6264 11199 LoutGr2
LoutBox ltblblack
grestore

grestore
12 384 0 384 240 288 60 6264 11211 LoutGr2
LoutBox ltblblack
grestore

grestore
12 384 0 384 240 288 60 6552 11211 LoutGr2
LoutBox ltblblack
grestore

grestore
288 12 0 12 240 288 60 6264 11583 LoutGr2
LoutBox ltblblack
grestore

grestore
288 12 0 12 240 288 60 6264 11199 LoutGr2
LoutBox ltblblack
grestore

grestore
12 12 0 12 240 288 60 6552 11583 LoutGr2
LoutBox ltblblack
grestore

grestore
12 12 0 12 240 288 60 6552 11199 LoutGr2
LoutBox ltblblack
grestore

grestore
12 384 0 384 240 288 60 6552 11211 LoutGr2
LoutBox ltblblack
grestore

grestore
12 384 0 384 240 288 60 9066 11211 LoutGr2
LoutBox ltblblack
grestore

grestore
2514 12 0 12 240 288 60 6552 11583 LoutGr2
LoutBox ltblblack
grestore

grestore
2514 12 0 12 240 288 60 6552 11199 LoutGr2
LoutBox ltblblack
grestore

grestore
12 12 0 12 240 288 60 9066 11583 LoutGr2
LoutBox ltblblack
grestore

grestore
12 12 0 12 240 288 60 9066 11199 LoutGr2
LoutBox ltblblack
grestore

grestore
12 384 0 384 240 288 60 480 10827 LoutGr2
LoutBox ltblblack
grestore

grestore
12 384 0 384 240 288 60 2055 10827 LoutGr2
LoutBox ltblblack
grestore

grestore
1575 12 0 12 240 288 60 480 11199 LoutGr2
LoutBox ltblblack
grestore

grestore
1575 12 0 12 240 288 60 480 10815 LoutGr2
LoutBox ltblblack
grestore

grestore
12 12 0 12 240 288 60 2055 11199 LoutGr2
LoutBox ltblblack
grestore

grestore
12 12 0 12 240 288 60 2055 10815 LoutGr2
LoutBox ltblblack
grestore

grestore
624 10965(SP)m 22(ARC)k 12 384 0 384 240 288 60 2055 10827 LoutGr2
LoutBox ltblblack
grestore

grestore
12 384 0 384 240 288 60 4721 10827 LoutGr2
LoutBox ltblblack
grestore

grestore
2666 12 0 12 240 288 60 2055 11199 LoutGr2
LoutBox ltblblack
grestore

grestore
2666 12 0 12 240 288 60 2055 10815 LoutGr2
LoutBox ltblblack
grestore

grestore
12 12 0 12 240 288 60 4721 11199 LoutGr2
LoutBox ltblblack
grestore

grestore
12 12 0 12 240 288 60 4721 10815 LoutGr2
LoutBox ltblblack
grestore

grestore
2199(SunOS)s
2923(4.1.3)s 12 384 0 384 240 288 60 4721 10827 LoutGr2
LoutBox ltblblack
grestore

grestore
12 384 0 384 240 288 60 5976 10827 LoutGr2
LoutBox ltblblack
grestore

grestore
1255 12 0 12 240 288 60 4721 11199 LoutGr2
LoutBox ltblblack
grestore

grestore
1255 12 0 12 240 288 60 4721 10815 LoutGr2
LoutBox ltblblack
grestore

grestore
12 12 0 12 240 288 60 5976 11199 LoutGr2
LoutBox ltblblack
grestore

grestore
12 12 0 12 240 288 60 5976 10815 LoutGr2
LoutBox ltblblack
grestore

grestore
4865(gcc)s 12 384 0 384 240 288 60 5976 10827 LoutGr2
LoutBox ltblblack
grestore

grestore
12 384 0 384 240 288 60 6264 10827 LoutGr2
LoutBox ltblblack
grestore

grestore
288 12 0 12 240 288 60 5976 11199 LoutGr2
LoutBox ltblblack
grestore

grestore
288 12 0 12 240 288 60 5976 10815 LoutGr2
LoutBox ltblblack
grestore

grestore
12 12 0 12 240 288 60 6264 11199 LoutGr2
LoutBox ltblblack
grestore

grestore
12 12 0 12 240 288 60 6264 10815 LoutGr2
LoutBox ltblblack
grestore

grestore
12 384 0 384 240 288 60 6264 10827 LoutGr2
LoutBox ltblblack
grestore

grestore
12 384 0 384 240 288 60 6552 10827 LoutGr2
LoutBox ltblblack
grestore

grestore
288 12 0 12 240 288 60 6264 11199 LoutGr2
LoutBox ltblblack
grestore

grestore
288 12 0 12 240 288 60 6264 10815 LoutGr2
LoutBox ltblblack
grestore

grestore
12 12 0 12 240 288 60 6552 11199 LoutGr2
LoutBox ltblblack
grestore

grestore
12 12 0 12 240 288 60 6552 10815 LoutGr2
LoutBox ltblblack
grestore

grestore
12 384 0 384 240 288 60 6552 10827 LoutGr2
LoutBox ltblblack
grestore

grestore
12 384 0 384 240 288 60 9066 10827 LoutGr2
LoutBox ltblblack
grestore

grestore
2514 12 0 12 240 288 60 6552 11199 LoutGr2
LoutBox ltblblack
grestore

grestore
2514 12 0 12 240 288 60 6552 10815 LoutGr2
LoutBox ltblblack
grestore

grestore
12 12 0 12 240 288 60 9066 11199 LoutGr2
LoutBox ltblblack
grestore

grestore
12 12 0 12 240 288 60 9066 10815 LoutGr2
LoutBox ltblblack
grestore

grestore
12 384 0 384 240 288 60 480 10443 LoutGr2
LoutBox ltblblack
grestore

grestore
12 384 0 384 240 288 60 2055 10443 LoutGr2
LoutBox ltblblack
grestore

grestore
1575 12 0 12 240 288 60 480 10815 LoutGr2
LoutBox ltblblack
grestore

grestore
1575 12 0 12 240 288 60 480 10431 LoutGr2
LoutBox ltblblack
grestore

grestore
12 12 0 12 240 288 60 2055 10815 LoutGr2
LoutBox ltblblack
grestore

grestore
12 12 0 12 240 288 60 2055 10431 LoutGr2
LoutBox ltblblack
grestore

grestore
624 10581(SP)m 22(ARC)k 12 384 0 384 240 288 60 2055 10443 LoutGr2
LoutBox ltblblack
grestore

grestore
12 384 0 384 240 288 60 4721 10443 LoutGr2
LoutBox ltblblack
grestore

grestore
2666 12 0 12 240 288 60 2055 10815 LoutGr2
LoutBox ltblblack
grestore

grestore
2666 12 0 12 240 288 60 2055 10431 LoutGr2
LoutBox ltblblack
grestore

grestore
12 12 0 12 240 288 60 4721 10815 LoutGr2
LoutBox ltblblack
grestore

grestore
12 12 0 12 240 288 60 4721 10431 LoutGr2
LoutBox ltblblack
grestore

grestore
2199(Solaris)s
2913(2)s 12 384 0 384 240 288 60 4721 10443 LoutGr2
LoutBox ltblblack
grestore

grestore
12 384 0 384 240 288 60 5976 10443 LoutGr2
LoutBox ltblblack
grestore

grestore
1255 12 0 12 240 288 60 4721 10815 LoutGr2
LoutBox ltblblack
grestore

grestore
1255 12 0 12 240 288 60 4721 10431 LoutGr2
LoutBox ltblblack
grestore

grestore
12 12 0 12 240 288 60 5976 10815 LoutGr2
LoutBox ltblblack
grestore

grestore
12 12 0 12 240 288 60 5976 10431 LoutGr2
LoutBox ltblblack
grestore

grestore
4865(gcc)s 12 384 0 384 240 288 60 5976 10443 LoutGr2
LoutBox ltblblack
grestore

grestore
12 384 0 384 240 288 60 6264 10443 LoutGr2
LoutBox ltblblack
grestore

grestore
288 12 0 12 240 288 60 5976 10815 LoutGr2
LoutBox ltblblack
grestore

grestore
288 12 0 12 240 288 60 5976 10431 LoutGr2
LoutBox ltblblack
grestore

grestore
12 12 0 12 240 288 60 6264 10815 LoutGr2
LoutBox ltblblack
grestore

grestore
12 12 0 12 240 288 60 6264 10431 LoutGr2
LoutBox ltblblack
grestore

grestore
12 384 0 384 240 288 60 6264 10443 LoutGr2
LoutBox ltblblack
grestore

grestore
12 384 0 384 240 288 60 6552 10443 LoutGr2
LoutBox ltblblack
grestore

grestore
288 12 0 12 240 288 60 6264 10815 LoutGr2
LoutBox ltblblack
grestore

grestore
288 12 0 12 240 288 60 6264 10431 LoutGr2
LoutBox ltblblack
grestore

grestore
12 12 0 12 240 288 60 6552 10815 LoutGr2
LoutBox ltblblack
grestore

grestore
12 12 0 12 240 288 60 6552 10431 LoutGr2
LoutBox ltblblack
grestore

grestore
12 384 0 384 240 288 60 6552 10443 LoutGr2
LoutBox ltblblack
grestore

grestore
12 384 0 384 240 288 60 9066 10443 LoutGr2
LoutBox ltblblack
grestore

grestore
2514 12 0 12 240 288 60 6552 10815 LoutGr2
LoutBox ltblblack
grestore

grestore
2514 12 0 12 240 288 60 6552 10431 LoutGr2
LoutBox ltblblack
grestore

grestore
12 12 0 12 240 288 60 9066 10815 LoutGr2
LoutBox ltblblack
grestore

grestore
12 12 0 12 240 288 60 9066 10431 LoutGr2
LoutBox ltblblack
grestore

grestore
12 384 0 384 240 288 60 480 10059 LoutGr2
LoutBox ltblblack
grestore

grestore
12 384 0 384 240 288 60 2055 10059 LoutGr2
LoutBox ltblblack
grestore

grestore
1575 12 0 12 240 288 60 480 10431 LoutGr2
LoutBox ltblblack
grestore

grestore
1575 12 0 12 240 288 60 480 10047 LoutGr2
LoutBox ltblblack
grestore

grestore
12 12 0 12 240 288 60 2055 10431 LoutGr2
LoutBox ltblblack
grestore

grestore
12 12 0 12 240 288 60 2055 10047 LoutGr2
LoutBox ltblblack
grestore

grestore
624 10197(RS6000)m 12 384 0 384 240 288 60 2055 10059 LoutGr2
LoutBox ltblblack
grestore

grestore
12 384 0 384 240 288 60 4721 10059 LoutGr2
LoutBox ltblblack
grestore

grestore
2666 12 0 12 240 288 60 2055 10431 LoutGr2
LoutBox ltblblack
grestore

grestore
2666 12 0 12 240 288 60 2055 10047 LoutGr2
LoutBox ltblblack
grestore

grestore
12 12 0 12 240 288 60 4721 10431 LoutGr2
LoutBox ltblblack
grestore

grestore
12 12 0 12 240 288 60 4721 10047 LoutGr2
LoutBox ltblblack
grestore

grestore
2199(AIX)s 2680(4.1.3)s
12 384 0 384 240 288 60 4721 10059 LoutGr2
LoutBox ltblblack
grestore

grestore
12 384 0 384 240 288 60 5976 10059 LoutGr2
LoutBox ltblblack
grestore

grestore
1255 12 0 12 240 288 60 4721 10431 LoutGr2
LoutBox ltblblack
grestore

grestore
1255 12 0 12 240 288 60 4721 10047 LoutGr2
LoutBox ltblblack
grestore

grestore
12 12 0 12 240 288 60 5976 10431 LoutGr2
LoutBox ltblblack
grestore

grestore
12 12 0 12 240 288 60 5976 10047 LoutGr2
LoutBox ltblblack
grestore

grestore
4865(gcc)s 12 384 0 384 240 288 60 5976 10059 LoutGr2
LoutBox ltblblack
grestore

grestore
12 384 0 384 240 288 60 6264 10059 LoutGr2
LoutBox ltblblack
grestore

grestore
288 12 0 12 240 288 60 5976 10431 LoutGr2
LoutBox ltblblack
grestore

grestore
288 12 0 12 240 288 60 5976 10047 LoutGr2
LoutBox ltblblack
grestore

grestore
12 12 0 12 240 288 60 6264 10431 LoutGr2
LoutBox ltblblack
grestore

grestore
12 12 0 12 240 288 60 6264 10047 LoutGr2
LoutBox ltblblack
grestore

grestore
12 384 0 384 240 288 60 6264 10059 LoutGr2
LoutBox ltblblack
grestore

grestore
12 384 0 384 240 288 60 6552 10059 LoutGr2
LoutBox ltblblack
grestore

grestore
288 12 0 12 240 288 60 6264 10431 LoutGr2
LoutBox ltblblack
grestore

grestore
288 12 0 12 240 288 60 6264 10047 LoutGr2
LoutBox ltblblack
grestore

grestore
12 12 0 12 240 288 60 6552 10431 LoutGr2
LoutBox ltblblack
grestore

grestore
12 12 0 12 240 288 60 6552 10047 LoutGr2
LoutBox ltblblack
grestore

grestore
12 384 0 384 240 288 60 6552 10059 LoutGr2
LoutBox ltblblack
grestore

grestore
12 384 0 384 240 288 60 9066 10059 LoutGr2
LoutBox ltblblack
grestore

grestore
2514 12 0 12 240 288 60 6552 10431 LoutGr2
LoutBox ltblblack
grestore

grestore
2514 12 0 12 240 288 60 6552 10047 LoutGr2
LoutBox ltblblack
grestore

grestore
12 12 0 12 240 288 60 9066 10431 LoutGr2
LoutBox ltblblack
grestore

grestore
12 12 0 12 240 288 60 9066 10047 LoutGr2
LoutBox ltblblack
grestore

grestore
12 384 0 384 240 288 60 480 9675 LoutGr2
LoutBox ltblblack
grestore

grestore
12 384 0 384 240 288 60 2055 9675 LoutGr2
LoutBox ltblblack
grestore

grestore
1575 12 0 12 240 288 60 480 10047 LoutGr2
LoutBox ltblblack
grestore

grestore
1575 12 0 12 240 288 60 480 9663 LoutGr2
LoutBox ltblblack
grestore

grestore
12 12 0 12 240 288 60 2055 10047 LoutGr2
LoutBox ltblblack
grestore

grestore
12 12 0 12 240 288 60 2055 9663 LoutGr2
LoutBox ltblblack
grestore

grestore
624 9813(RS6000)m 12 384 0 384 240 288 60 2055 9675 LoutGr2
LoutBox ltblblack
grestore

grestore
12 384 0 384 240 288 60 4721 9675 LoutGr2
LoutBox ltblblack
grestore

grestore
2666 12 0 12 240 288 60 2055 10047 LoutGr2
LoutBox ltblblack
grestore

grestore
2666 12 0 12 240 288 60 2055 9663 LoutGr2
LoutBox ltblblack
grestore

grestore
12 12 0 12 240 288 60 4721 10047 LoutGr2
LoutBox ltblblack
grestore

grestore
12 12 0 12 240 288 60 4721 9663 LoutGr2
LoutBox ltblblack
grestore

grestore
2199(AIX)s 2680(4.1.3)s 12 384 0 384 240 288 60 4721 9675 LoutGr2
LoutBox ltblblack
grestore

grestore
12 384 0 384 240 288 60 5976 9675 LoutGr2
LoutBox ltblblack
grestore

grestore
1255 12 0 12 240 288 60 4721 10047 LoutGr2
LoutBox ltblblack
grestore

grestore
1255 12 0 12 240 288 60 4721 9663 LoutGr2
LoutBox ltblblack
grestore

grestore
12 12 0 12 240 288 60 5976 10047 LoutGr2
LoutBox ltblblack
grestore

grestore
12 12 0 12 240 288 60 5976 9663 LoutGr2
LoutBox ltblblack
grestore

grestore
4865(xlc)s
12 384 0 384 240 288 60 5976 9675 LoutGr2
LoutBox ltblblack
grestore

grestore
12 384 0 384 240 288 60 6264 9675 LoutGr2
LoutBox ltblblack
grestore

grestore
288 12 0 12 240 288 60 5976 10047 LoutGr2
LoutBox ltblblack
grestore

grestore
288 12 0 12 240 288 60 5976 9663 LoutGr2
LoutBox ltblblack
grestore

grestore
12 12 0 12 240 288 60 6264 10047 LoutGr2
LoutBox ltblblack
grestore

grestore
12 12 0 12 240 288 60 6264 9663 LoutGr2
LoutBox ltblblack
grestore

grestore
12 384 0 384 240 288 60 6264 9675 LoutGr2
LoutBox ltblblack
grestore

grestore
12 384 0 384 240 288 60 6552 9675 LoutGr2
LoutBox ltblblack
grestore

grestore
288 12 0 12 240 288 60 6264 10047 LoutGr2
LoutBox ltblblack
grestore

grestore
288 12 0 12 240 288 60 6264 9663 LoutGr2
LoutBox ltblblack
grestore

grestore
12 12 0 12 240 288 60 6552 10047 LoutGr2
LoutBox ltblblack
grestore

grestore
12 12 0 12 240 288 60 6552 9663 LoutGr2
LoutBox ltblblack
grestore

grestore
12 384 0 384 240 288 60 6552 9675 LoutGr2
LoutBox ltblblack
grestore

grestore
12 384 0 384 240 288 60 9066 9675 LoutGr2
LoutBox ltblblack
grestore

grestore
2514 12 0 12 240 288 60 6552 10047 LoutGr2
LoutBox ltblblack
grestore

grestore
2514 12 0 12 240 288 60 6552 9663 LoutGr2
LoutBox ltblblack
grestore

grestore
12 12 0 12 240 288 60 9066 10047 LoutGr2
LoutBox ltblblack
grestore

grestore
12 12 0 12 240 288 60 9066 9663 LoutGr2
LoutBox ltblblack
grestore

grestore
12 384 0 384 240 288 60 480 9291 LoutGr2
LoutBox ltblblack
grestore

grestore
12 384 0 384 240 288 60 2055 9291 LoutGr2
LoutBox ltblblack
grestore

grestore
1575 12 0 12 240 288 60 480 9663 LoutGr2
LoutBox ltblblack
grestore

grestore
1575 12 0 12 240 288 60 480 9279 LoutGr2
LoutBox ltblblack
grestore

grestore
12 12 0 12 240 288 60 2055 9663 LoutGr2
LoutBox ltblblack
grestore

grestore
12 12 0 12 240 288 60 2055 9279 LoutGr2
LoutBox ltblblack
grestore

grestore
624 9429(P)m 22(A-RISC)k 12 384 0 384 240 288 60 2055 9291 LoutGr2
LoutBox ltblblack
grestore

grestore
12 384 0 384 240 288 60 4721 9291 LoutGr2
LoutBox ltblblack
grestore

grestore
2666 12 0 12 240 288 60 2055 9663 LoutGr2
LoutBox ltblblack
grestore

grestore
2666 12 0 12 240 288 60 2055 9279 LoutGr2
LoutBox ltblblack
grestore

grestore
12 12 0 12 240 288 60 4721 9663 LoutGr2
LoutBox ltblblack
grestore

grestore
12 12 0 12 240 288 60 4721 9279 LoutGr2
LoutBox ltblblack
grestore

grestore
2199(HPUX)s 12 384 0 384 240 288 60 4721 9291 LoutGr2
LoutBox ltblblack
grestore

grestore
12 384 0 384 240 288 60 5976 9291 LoutGr2
LoutBox ltblblack
grestore

grestore
1255 12 0 12 240 288 60 4721 9663 LoutGr2
LoutBox ltblblack
grestore

grestore
1255 12 0 12 240 288 60 4721 9279 LoutGr2
LoutBox ltblblack
grestore

grestore
12 12 0 12 240 288 60 5976 9663 LoutGr2
LoutBox ltblblack
grestore

grestore
12 12 0 12 240 288 60 5976 9279 LoutGr2
LoutBox ltblblack
grestore

grestore
4865(gcc)s 12 384 0 384 240 288 60 5976 9291 LoutGr2
LoutBox ltblblack
grestore

grestore
12 384 0 384 240 288 60 6264 9291 LoutGr2
LoutBox ltblblack
grestore

grestore
288 12 0 12 240 288 60 5976 9663 LoutGr2
LoutBox ltblblack
grestore

grestore
288 12 0 12 240 288 60 5976 9279 LoutGr2
LoutBox ltblblack
grestore

grestore
12 12 0 12 240 288 60 6264 9663 LoutGr2
LoutBox ltblblack
grestore

grestore
12 12 0 12 240 288 60 6264 9279 LoutGr2
LoutBox ltblblack
grestore

grestore
12 384 0 384 240 288 60 6264 9291 LoutGr2
LoutBox ltblblack
grestore

grestore
12 384 0 384 240 288 60 6552 9291 LoutGr2
LoutBox ltblblack
grestore

grestore
288 12 0 12 240 288 60 6264 9663 LoutGr2
LoutBox ltblblack
grestore

grestore
288 12 0 12 240 288 60 6264 9279 LoutGr2
LoutBox ltblblack
grestore

grestore
12 12 0 12 240 288 60 6552 9663 LoutGr2
LoutBox ltblblack
grestore

grestore
12 12 0 12 240 288 60 6552 9279 LoutGr2
LoutBox ltblblack
grestore

grestore
12 384 0 384 240 288 60 6552 9291 LoutGr2
LoutBox ltblblack
grestore

grestore
12 384 0 384 240 288 60 9066 9291 LoutGr2
LoutBox ltblblack
grestore

grestore
2514 12 0 12 240 288 60 6552 9663 LoutGr2
LoutBox ltblblack
grestore

grestore
2514 12 0 12 240 288 60 6552 9279 LoutGr2
LoutBox ltblblack
grestore

grestore
12 12 0 12 240 288 60 9066 9663 LoutGr2
LoutBox ltblblack
grestore

grestore
12 12 0 12 240 288 60 9066 9279 LoutGr2
LoutBox ltblblack
grestore

grestore
12 384 0 384 240 288 60 480 8907 LoutGr2
LoutBox ltblblack
grestore

grestore
12 384 0 384 240 288 60 2055 8907 LoutGr2
LoutBox ltblblack
grestore

grestore
1575 12 0 12 240 288 60 480 9279 LoutGr2
LoutBox ltblblack
grestore

grestore
1575 12 0 12 240 288 60 480 8895 LoutGr2
LoutBox ltblblack
grestore

grestore
12 12 0 12 240 288 60 2055 9279 LoutGr2
LoutBox ltblblack
grestore

grestore
12 12 0 12 240 288 60 2055 8895 LoutGr2
LoutBox ltblblack
grestore

grestore
624 9045(Alpha)m
12 384 0 384 240 288 60 2055 8907 LoutGr2
LoutBox ltblblack
grestore

grestore
12 384 0 384 240 288 60 4721 8907 LoutGr2
LoutBox ltblblack
grestore

grestore
2666 12 0 12 240 288 60 2055 9279 LoutGr2
LoutBox ltblblack
grestore

grestore
2666 12 0 12 240 288 60 2055 8895 LoutGr2
LoutBox ltblblack
grestore

grestore
12 12 0 12 240 288 60 4721 9279 LoutGr2
LoutBox ltblblack
grestore

grestore
12 12 0 12 240 288 60 4721 8895 LoutGr2
LoutBox ltblblack
grestore

grestore
2199(DEC)s 2730(Unix)s 3264(3.2)s 12 384 0 384 240 288 60 4721 8907 LoutGr2
LoutBox ltblblack
grestore

grestore
12 384 0 384 240 288 60 5976 8907 LoutGr2
LoutBox ltblblack
grestore

grestore
1255 12 0 12 240 288 60 4721 9279 LoutGr2
LoutBox ltblblack
grestore

grestore
1255 12 0 12 240 288 60 4721 8895 LoutGr2
LoutBox ltblblack
grestore

grestore
12 12 0 12 240 288 60 5976 9279 LoutGr2
LoutBox ltblblack
grestore

grestore
12 12 0 12 240 288 60 5976 8895 LoutGr2
LoutBox ltblblack
grestore

grestore
4865(gcc)s 12 384 0 384 240 288 60 5976 8907 LoutGr2
LoutBox ltblblack
grestore

grestore
12 384 0 384 240 288 60 6264 8907 LoutGr2
LoutBox ltblblack
grestore

grestore
288 12 0 12 240 288 60 5976 9279 LoutGr2
LoutBox ltblblack
grestore

grestore
288 12 0 12 240 288 60 5976 8895 LoutGr2
LoutBox ltblblack
grestore

grestore
12 12 0 12 240 288 60 6264 9279 LoutGr2
LoutBox ltblblack
grestore

grestore
12 12 0 12 240 288 60 6264 8895 LoutGr2
LoutBox ltblblack
grestore

grestore
12 384 0 384 240 288 60 6264 8907 LoutGr2
LoutBox ltblblack
grestore

grestore
12 384 0 384 240 288 60 6552 8907 LoutGr2
LoutBox ltblblack
grestore

grestore
288 12 0 12 240 288 60 6264 9279 LoutGr2
LoutBox ltblblack
grestore

grestore
288 12 0 12 240 288 60 6264 8895 LoutGr2
LoutBox ltblblack
grestore

grestore
12 12 0 12 240 288 60 6552 9279 LoutGr2
LoutBox ltblblack
grestore

grestore
12 12 0 12 240 288 60 6552 8895 LoutGr2
LoutBox ltblblack
grestore

grestore
12 384 0 384 240 288 60 6552 8907 LoutGr2
LoutBox ltblblack
grestore

grestore
12 384 0 384 240 288 60 9066 8907 LoutGr2
LoutBox ltblblack
grestore

grestore
2514 12 0 12 240 288 60 6552 9279 LoutGr2
LoutBox ltblblack
grestore

grestore
2514 12 0 12 240 288 60 6552 8895 LoutGr2
LoutBox ltblblack
grestore

grestore
12 12 0 12 240 288 60 9066 9279 LoutGr2
LoutBox ltblblack
grestore

grestore
12 12 0 12 240 288 60 9066 8895 LoutGr2
LoutBox ltblblack
grestore

grestore
12 384 0 384 240 288 60 480 8523 LoutGr2
LoutBox ltblblack
grestore

grestore
12 384 0 384 240 288 60 2055 8523 LoutGr2
LoutBox ltblblack
grestore

grestore
1575 12 0 12 240 288 60 480 8895 LoutGr2
LoutBox ltblblack
grestore

grestore
1575 12 0 12 240 288 60 480 8511 LoutGr2
LoutBox ltblblack
grestore

grestore
12 12 0 12 240 288 60 2055 8895 LoutGr2
LoutBox ltblblack
grestore

grestore
12 12 0 12 240 288 60 2055 8511 LoutGr2
LoutBox ltblblack
grestore

grestore
624 8661(Alpha)m
12 384 0 384 240 288 60 2055 8523 LoutGr2
LoutBox ltblblack
grestore

grestore
12 384 0 384 240 288 60 4721 8523 LoutGr2
LoutBox ltblblack
grestore

grestore
2666 12 0 12 240 288 60 2055 8895 LoutGr2
LoutBox ltblblack
grestore

grestore
2666 12 0 12 240 288 60 2055 8511 LoutGr2
LoutBox ltblblack
grestore

grestore
12 12 0 12 240 288 60 4721 8895 LoutGr2
LoutBox ltblblack
grestore

grestore
12 12 0 12 240 288 60 4721 8511 LoutGr2
LoutBox ltblblack
grestore

grestore
2199(DEC)s 2730(Unix)s 3264(3.2)s 12 384 0 384 240 288 60 4721 8523 LoutGr2
LoutBox ltblblack
grestore

grestore
12 384 0 384 240 288 60 5976 8523 LoutGr2
LoutBox ltblblack
grestore

grestore
1255 12 0 12 240 288 60 4721 8895 LoutGr2
LoutBox ltblblack
grestore

grestore
1255 12 0 12 240 288 60 4721 8511 LoutGr2
LoutBox ltblblack
grestore

grestore
12 12 0 12 240 288 60 5976 8895 LoutGr2
LoutBox ltblblack
grestore

grestore
12 12 0 12 240 288 60 5976 8511 LoutGr2
LoutBox ltblblack
grestore

grestore
4865(c89)s 12 384 0 384 240 288 60 5976 8523 LoutGr2
LoutBox ltblblack
grestore

grestore
12 384 0 384 240 288 60 6264 8523 LoutGr2
LoutBox ltblblack
grestore

grestore
288 12 0 12 240 288 60 5976 8895 LoutGr2
LoutBox ltblblack
grestore

grestore
288 12 0 12 240 288 60 5976 8511 LoutGr2
LoutBox ltblblack
grestore

grestore
12 12 0 12 240 288 60 6264 8895 LoutGr2
LoutBox ltblblack
grestore

grestore
12 12 0 12 240 288 60 6264 8511 LoutGr2
LoutBox ltblblack
grestore

grestore
12 384 0 384 240 288 60 6264 8523 LoutGr2
LoutBox ltblblack
grestore

grestore
12 384 0 384 240 288 60 6552 8523 LoutGr2
LoutBox ltblblack
grestore

grestore
288 12 0 12 240 288 60 6264 8895 LoutGr2
LoutBox ltblblack
grestore

grestore
288 12 0 12 240 288 60 6264 8511 LoutGr2
LoutBox ltblblack
grestore

grestore
12 12 0 12 240 288 60 6552 8895 LoutGr2
LoutBox ltblblack
grestore

grestore
12 12 0 12 240 288 60 6552 8511 LoutGr2
LoutBox ltblblack
grestore

grestore
12 384 0 384 240 288 60 6552 8523 LoutGr2
LoutBox ltblblack
grestore

grestore
12 384 0 384 240 288 60 9066 8523 LoutGr2
LoutBox ltblblack
grestore

grestore
2514 12 0 12 240 288 60 6552 8895 LoutGr2
LoutBox ltblblack
grestore

grestore
2514 12 0 12 240 288 60 6552 8511 LoutGr2
LoutBox ltblblack
grestore

grestore
12 12 0 12 240 288 60 9066 8895 LoutGr2
LoutBox ltblblack
grestore

grestore
12 12 0 12 240 288 60 9066 8511 LoutGr2
LoutBox ltblblack
grestore

grestore
240 fnt2
480 8293(Ho)m 2(w)k 1014(can)s 1429(I)s 1578(k)s 2(eep)k
2107(inf)s 6(ormed)k 3098(as)s 3365(to)s 3619(new)s
4088(r)s 4(eleases)k 4934(and)s 5375(announcements?)s 240 fnt1
480 7920(W)m 19(e)k 863(ha)s 4(v)k 3(e)k
1378(set)s 1717(up)s 2024(serv)s 3(eral)k 2845(SimpleScalar)s
4192(mailing)s 4989(lists)s 5438(for)s 5790(v)s 6(arious)k
6553(topics.)s 7242(T)s 19(o)k 7556(subscribe,)s 8580(go)s
8887(to)s 0 7632(the)m 348(mailing)s 1131(list)s 348 1930 7608 12 ul
1482(page)s
2050(and)s 2454(follo)s 6(w)k 3126(the)s 3474(directions.)s
240 fnt2 4520 7631(Ho)m 2(w)k 5054(do)s 5362(I)s
5511(see)s 5872(old)s 6246(mailing)s 7072(list)s 7436(messages?)s
240 fnt1 480 7258(Ste)m 6(v)k 3(e)k 1054(Raasch)s
1797(at)s 2024(Michig)s 1(an)k 2993(w)s 2(as)k
3409(kind)s 3888(enough)s 4647(to)s 4881(set)s 5201(up)s
5490(an)s 5768(SS)s 6074(mailing)s 6853(list)s 7199(archi)s 6(v)k 3(e.)k
7992(Y)s 26(ou)k 8429(should)s 0 6970(pore)m 482(through)s
1286(these)s 1834(before)s 2502(sending)s 3301(a)s 3469(question)s
4338(to)s 4579(the)s 4928(list,)s 5328(which)s 5971(goes)s
6463(to)s 6703(hundreds)s 7634(of)s 7906(people.)s 8650(Lots)s
0 6682(of)m 260(the)s 597(same)s 1133(questions)s 2076(gets)s
2501(ask)s 2(ed)k 3091(o)s 3(v)k 3(er)k
3558(and)s 3951(o)s 3(v)k 3(er)k 9(,)k
4457(and)s 4850(the)s 5186(answers)s 5996(to)s 6224(ne)s 6(w)k
6659(users')s 7251(questions)s 8195(are)s 8530(lik)s 2(ely)k
0 6394(to)m 239(be)s 521(in)s 764(the)s 1112(archi)s 6(v)k 3(e!)k
480 6020(The)m 908(archi)s 6(v)k 3(e)k 1658(is)s
1868(a)s 4(v)k 6(ailable)k 2776(at:)s 3054 5546 5996 12 ul
3054(http://ord.eecs.umich.edu/)s
5606(.)s 240 fnt2 480 5645(What')m 8(s)k 1270(new)s
1739(in)s 1994(v)s 2(ersion)k 2792(2.0?)s 240 fnt1
480 5272(W)m 19(e)k 849(ha)s 4(v)k 3(e)k
1351(added)s 1981(numerous)s 2977(features)s 3784(and)s 4188(utilities.)s
5008(The)s 5436(code)s 5945(has)s 6316(been)s 6825(cleaned)s
7614(up)s 7907(and)s 8312(is)s 8523(better)s 0 4984(documented,)m
1262(plus)s 1696(all)s 1974(kno)s 6(wn)k 2662(b)s 4(ugs)k
3146(ha)s 4(v)k 3(e)k 3632(been)s 4125(\207x)s 3(ed.)k
4689(The)s 5102(code)s 5594(no)s 6(w)k 6039(includes)s
6872(much)s 7445(more)s 7976(sophisticat)s 8998(-)s 0 4696(ed)m
286(ar)s 4(guments)k 1331(and)s 1737(statistics)s 2612(packages)s
3542(\(that)s 4041(allo)s 6(w)k 4622(you)s 5040(to)s
5281(use)s 5658(con\207g)s 6312(\207les)s 6764(to)s 7005(set)s
7332(simulation)s 8401(param)s 8998(-)s 0 4408(eters\),)m 635(plus)s
1083(cleaner)s 1830(statistics)s 2700(reporting.)s 3678(W)s 19(e)k
4045(ha)s 4(v)k 3(e)k 4544(pro)s 3(vided)k
5448(a)s 5612(source-)s 6304(le)s 6(v)k 3(el)k
6812(deb)s 4(ugger)k 7757(called)s 8383(DLite!,)s 0 4120(which)m
652(allo)s 6(ws)k 1331(you)s 1757(to)s 2006(step)s
2454(through)s 3267(the)s 3625(program)s 4505(being)s 5101(simulated.)s
6144(W)s 19(e)k 6523(ha)s 4(v)k 3(e)k
7035(also)s 7483(added)s 8123(a)s 8300(pipeline)s 0 3832(tracer)m 9(,)k
625(which)s 1252(allo)s 6(ws)k 1905(you)s 2305(to)s
2528(track)s 3051(pipeline)s 3861(state)s 4339(in)s 4566(the)s
4899(out-)s 5273(of-)s 5540(order)s 6088(simulator)s 13(.)k
7066(W)s 19(e)k 7419(ha)s 4(v)k 3(e)k
7905(remo)s 3(v)k 3(ed)k 8778(the)s 0 3544(simulators')m
1097(dependence)s 2272(on)s 2558(the)s 2896(BFD)s 3403(utilities,)s
4214(making)s 4975(binutils')s 5793(installation)s 6900(optional.)s 7778(There)s
8380(are)s 8716(tw)s 2(o)k 0 3256(ne)m 6(w)k
450(simulators,)s 1555(sim-)s 1968(pro\207le)s 2651(and)s 3058(sim-)s
3471(cheetah,)s 4311(that)s 4732(do)s 5028(useful)s 5670(pro\207ling)s
6550(and)s 6957(multiple)s 7813(simultaneous)s 0 2968(cache)m 610(con\207guration)s
1953(simulations,)s 3172(respecti)s 6(v)k 3(ely)k 15(.)k
4416(Finally)s 15(,)k 5195(we)s 5540(include)s 6310(pre-)s
6683(b)s 4(uilt)k 7187(binaries,)s 8060(both)s 8554(small)s
0 2680(test)m 407(binaries)s 1231(and)s 1652(a)s 1835(complete)s
2784(set)s 3125(of)s 3413(the)s 3778(SPEC95)s 4653(binaries)s
5477(b)s 4(uilt)k 5987(for)s 6342(SimpleScalar)s 7692(\(both)s
8271(big-)s 8722(and)s 0 2392(little-)m 504(endian\).)s 9066 10 0 10 240 288 60 0 1112 LoutGr2
LoutRule stroke
grestore

grestore
0 780(Last)m
471(modi\207ed:)s 1428(Sun)s 1858(Feb)s 2270(27)s 2558(2000)s
3093(23:29)s 3690(by)s 3984(Doug)s 3984 5230 756 12 ul
4570(Bur)s 4(ger)k
9066 10 0 10 240 288 60 0 248 LoutGr2
LoutRule stroke
grestore

grestore

grestore
0 0 0 0 240 288 60 1417 -15423 LoutGr2
0 LoutMargSet
grestore

grestore

grestore

grestore

pgsave restore
showpage

%%Page: 3 3
%%BeginPageSetup
%%PageResources: font Times-Roman
/pgsave save def
%%IncludeResource: font Times-Roman
/Times-Romanfnt1 vec2 /Times-Roman LoutRecode
/fnt1 { /Times-Romanfnt1 LoutFont } def
0.0500 dup scale 10 setlinewidth
%%EndPageSetup
gsave
0 0 translate
240 fnt1 0.0 0.0 0.0 setrgbcolor 11900 16840 0 16840 240 288 60 LoutGraphic
gsave
LoutPageSet
grestore
gsave
0 16840 translate
0.0000 rotate
5770 -1579(-)m 5898(3)s 6062(-)s 9066 13416 0 13416 240 288 60 1417 -15423 LoutGr2
1 LoutMargSet
grestore

grestore
0 0 0 0 240 288 60 1417 -15423 LoutGr2
1 LoutMargSet
grestore

grestore

grestore

grestore

pgsave restore
showpage

%%Trailer
%%DocumentNeededResources: font Times-Roman
%%+ font Times-Bold
%%DocumentSuppliedResources: procset LoutStartUp
%%+  procset LoutTblPrependGraphic
%%+  procset LoutBasicSetup
%%+ encoding vec2
%%Pages: 3
%%EOF
