Flat profile:

Each sample counts as 0.01 seconds.
  %   cumulative   self              self     total           
 time   seconds   seconds    calls   s/call   s/call  name    
 11.88      1.19     1.19 87448932     0.00     0.00  operator*(float, vec3 const&)
 10.73      2.27     1.08 79615357     0.00     0.00  operator-(vec3 const&, vec3 const&)
  9.78      3.25     0.98 72166425     0.00     0.00  operator+(vec3 const&, vec3 const&)
  8.63      4.11     0.87 350559530     0.00     0.00  vec3::vec3(float, float, float)
  6.69      4.78     0.67 24055475     0.00     0.00  sphere::hit(ray const&, float, float, hit_record&) const
  4.89      5.27     0.49     4096     0.00     0.00  stbi__YCbCr_to_RGB_simd(unsigned char*, unsigned char const*, unsigned char const*, unsigned char const*, int, int)
  4.74      5.75     0.48   786432     0.00     0.00  stbi__idct_simd(unsigned char*, int, short*)
  4.29      6.18     0.43 32110953     0.00     0.00  operator/(vec3, float)
  3.09      6.49     0.31 16000000     0.00     0.00  color(ray const&, hitable*, int)
  2.99      6.79     0.30     8192     0.00     0.00  stbi__resample_row_hv_2_simd(unsigned char*, unsigned char*, unsigned char*, int, int)
  2.79      7.07     0.28  8055475     0.00     0.00  image_texture::value(float, float, vec3 const&) const
  2.40      7.31     0.24  8055475     0.00     0.00  random_in_unit_sphere()
  2.30      7.54     0.23                             main
  2.10      7.75     0.21 87559878     0.00     0.00  dot(vec3 const&, vec3 const&)
  2.10      7.96     0.21 88166425     0.00     0.00  ray::direction() const
  1.80      8.14     0.18 24055475     0.00     0.00  hitable_list::hit(ray const&, float, float, hit_record&) const
  1.55      8.29     0.16 176554757     0.00     0.00  vec3::vec3()
  1.50      8.44     0.15 16000003     0.00     0.00  unit_vector(vec3)
  1.50      8.59     0.15  8055475     0.00     0.00  get_sphere_uv(vec3 const&, float&, float&)
  1.45      8.74     0.15  8055475     0.00     0.00  operator*(vec3 const&, vec3 const&)
  1.20      8.86     0.12 24055475     0.00     0.00  ray::origin() const
  1.15      8.97     0.12 24055475     0.00     0.00  ray::ray(vec3 const&, vec3 const&)
  1.10      9.08     0.11 16000000     0.00     0.00  camera::get_ray(float, float)
  1.10      9.19     0.11   786432     0.00     0.00  stbi__jpeg_decode_block(stbi__jpeg*, short*, stbi__huffman*, stbi__huffman*, short*, int, unsigned short*)
  1.00      9.29     0.10 48110950     0.00     0.00  hit_record::hit_record()
  0.80      9.37     0.08 48701903     0.00     0.00  std::sqrt(float)
  0.80      9.45     0.08 24055478     0.00     0.00  vec3::length() const
  0.75      9.53     0.08  2115591     0.00     0.00  stbi__grow_buffer_unsafe(stbi__jpeg*)
  0.60      9.59     0.06  8055475     0.00     0.00  lambertian::scatter(ray const&, hit_record const&, vec3&, ray&) const
  0.60      9.65     0.06  8055475     0.00     0.00  ray::point_at_parameter(float) const
  0.60      9.71     0.06        1     0.06     0.06  std::tan(float)
  0.40      9.75     0.04   960000     0.00     0.00  vec3::operator[](int)
  0.30      9.78     0.03        1     0.03     0.74  stbi__parse_entropy_coded_data(stbi__jpeg*)
  0.30      9.81     0.03                             operator*(vec3 const&, float)
  0.25      9.83     0.03  8055475     0.00     0.00  ray::ray()
  0.20      9.85     0.02 16110950     0.00     0.00  int const& std::min<int>(int const&, int const&)
  0.20      9.87     0.02 16000000     0.00     0.00  vec3::operator+=(vec3 const&)
  0.20      9.89     0.02  4425107     0.00     0.00  stbi__get8(stbi__context*)
  0.20      9.91     0.02        1     0.02     0.02  hitable_list::hitable_list(hitable**, int)
  0.20      9.93     0.02                             frame_dummy
  0.15      9.95     0.02 24055475     0.00     0.00  vec3::y() const
  0.15      9.96     0.02  8055475     0.00     0.00  vec3::z() const
  0.15      9.98     0.02  2061561     0.00     0.00  stbi__jpeg_huff_decode(stbi__jpeg*, stbi__huffman*)
  0.10      9.99     0.01 16110950     0.00     0.00  int const& std::max<int>(int const&, int const&)
  0.10     10.00     0.01   927641     0.00     0.00  stbi__extend_receive(stbi__jpeg*, int)
  0.10     10.01     0.01                             std::pow(float, float)
  0.10     10.02     0.01                             stbi_is_16_bit_from_callbacks
  0.05     10.02     0.01                             stbi__idct_block(unsigned char*, int, short*)
  0.00     10.02     0.00  8055475     0.00     0.00  vec3::x() const
  0.00     10.02     0.00   160000     0.00     0.00  vec3::operator/=(float)
  0.00     10.02     0.00    34572     0.00     0.00  stbi__stdio_read(void*, char*, int)
  0.00     10.02     0.00    34572     0.00     0.00  stbi__refill_buffer(stbi__context*)
  0.00     10.02     0.00     4096     0.00     0.00  resample_row_1(unsigned char*, unsigned char*, unsigned char*, int, int)
  0.00     10.02     0.00       12     0.00     0.00  stbi__get_marker(stbi__jpeg*)
  0.00     10.02     0.00       11     0.00     0.00  stbi__get16be(stbi__context*)
  0.00     10.02     0.00        9     0.00     0.00  stbi__malloc(unsigned long)
  0.00     10.02     0.00        7     0.00     0.00  stbi__process_marker(stbi__jpeg*, int)
  0.00     10.02     0.00        7     0.00     0.00  stbi__mul2sizes_valid(int, int)
  0.00     10.02     0.00        5     0.00     0.00  stbi__addsizes_valid(int, int)
  0.00     10.02     0.00        4     0.00     0.00  stbi__build_huffman(stbi__huffman*, int*)
  0.00     10.02     0.00        3     0.00     0.00  stbi__malloc_mad2(int, int, int)
  0.00     10.02     0.00        3     0.00     0.00  stbi__mad2sizes_valid(int, int, int)
  0.00     10.02     0.00        3     0.00     0.00  std::chrono::duration<long, std::ratio<1l, 1000000000l> >::count() const
  0.00     10.02     0.00        2     0.00     0.00  cross(vec3 const&, vec3 const&)
  0.00     10.02     0.00        2     0.00     0.00  stbi__setup_jpeg(stbi__jpeg*)
  0.00     10.02     0.00        2     0.00     0.00  stbi__build_fast_ac(short*, stbi__huffman*)
  0.00     10.02     0.00        2     0.00     0.00  stbi__sse2_available()
  0.00     10.02     0.00        2     0.00     0.00  stbi__mad3sizes_valid(int, int, int, int)
  0.00     10.02     0.00        2     0.00     0.00  stbi__decode_jpeg_header(stbi__jpeg*, int)
  0.00     10.02     0.00        2     0.00     0.00  hitable::hitable()
  0.00     10.02     0.00        2     0.00     0.00  std::chrono::time_point<std::chrono::_V2::system_clock, std::chrono::duration<long, std::ratio<1l, 1000000000l> > >::time_since_epoch() const
  0.00     10.02     0.00        2     0.00     0.00  std::chrono::duration<double, std::ratio<1l, 1000l> >::count() const
  0.00     10.02     0.00        1     0.00     0.00  _GLOBAL__sub_I__ZNK12hitable_list3hitERK3rayffR10hit_record
  0.00     10.02     0.00        1     0.00     0.00  __static_initialization_and_destruction_0(int, int)
  0.00     10.02     0.00        1     0.00     1.53  earth()
  0.00     10.02     0.00        1     0.00     0.00  stbi__skip(stbi__context*, int)
  0.00     10.02     0.00        1     0.00     0.00  stbi__fopen(char const*, char const*)
  0.00     10.02     0.00        1     0.00     0.00  stbi__rewind(stbi__context*)
  0.00     10.02     0.00        1     0.00     1.53  load_jpeg_image(stbi__jpeg*, int*, int*, int*, int)
  0.00     10.02     0.00        1     0.00     1.53  stbi__jpeg_load(stbi__context*, int*, int*, int*, int, stbi__result_info*)
  0.00     10.02     0.00        1     0.00     0.00  stbi__jpeg_test(stbi__context*)
  0.00     10.02     0.00        1     0.00     1.53  stbi__load_main(stbi__context*, int*, int*, int*, int, stbi__result_info*, int)
  0.00     10.02     0.00        1     0.00     0.00  stbi__jpeg_reset(stbi__jpeg*)
  0.00     10.02     0.00        1     0.00     0.00  stbi__start_file(stbi__context*, _IO_FILE*)
  0.00     10.02     0.00        1     0.00     0.00  stbi__malloc_mad3(int, int, int, int)
  0.00     10.02     0.00        1     0.00     0.00  stbi__cleanup_jpeg(stbi__jpeg*)
  0.00     10.02     0.00        1     0.00     0.00  stbi__start_callbacks(stbi__context*, stbi_io_callbacks*, void*)
  0.00     10.02     0.00        1     0.00     0.74  stbi__decode_jpeg_image(stbi__jpeg*)
  0.00     10.02     0.00        1     0.00     0.00  stbi__process_scan_header(stbi__jpeg*)
  0.00     10.02     0.00        1     0.00     0.00  stbi__free_jpeg_components(stbi__jpeg*, int, int)
  0.00     10.02     0.00        1     0.00     0.00  stbi__process_frame_header(stbi__jpeg*, int)
  0.00     10.02     0.00        1     0.00     1.53  stbi__load_and_postprocess_8bit(stbi__context*, int*, int*, int*, int)
  0.00     10.02     0.00        1     0.00     0.00  lambertian::lambertian(texture*)
  0.00     10.02     0.00        1     0.00     0.00  image_texture::image_texture(unsigned char*, int, int)
  0.00     10.02     0.00        1     0.00     0.06  camera::camera(vec3, vec3, vec3, float, float)
  0.00     10.02     0.00        1     0.00     0.00  sphere::sphere(vec3, float, material*)
  0.00     10.02     0.00        1     0.00     0.00  texture::texture()
  0.00     10.02     0.00        1     0.00     0.00  material::material()
  0.00     10.02     0.00        1     0.00     0.00  std::enable_if<std::chrono::__is_duration<std::chrono::duration<double, std::ratio<1l, 1000l> > >::value, std::chrono::duration<double, std::ratio<1l, 1000l> > >::type std::chrono::duration_cast<std::chrono::duration<double, std::ratio<1l, 1000l> >, long, std::ratio<1l, 1000000000l> >(std::chrono::duration<long, std::ratio<1l, 1000000000l> > const&)
  0.00     10.02     0.00        1     0.00     0.00  std::chrono::duration<double, std::ratio<1l, 1000l> > std::chrono::__duration_cast_impl<std::chrono::duration<double, std::ratio<1l, 1000l> >, std::ratio<1l, 1000000l>, double, true, false>::__cast<long, std::ratio<1l, 1000000000l> >(std::chrono::duration<long, std::ratio<1l, 1000000000l> > const&)
  0.00     10.02     0.00        1     0.00     0.00  std::chrono::duration<double, std::ratio<1l, 1000l> >::duration<double, void>(double const&)
  0.00     10.02     0.00        1     0.00     0.00  std::chrono::duration<double, std::ratio<1l, 1000l> >::duration<long, std::ratio<1l, 1000000000l>, void>(std::chrono::duration<long, std::ratio<1l, 1000000000l> > const&)
  0.00     10.02     0.00        1     0.00     0.00  std::chrono::duration<long, std::ratio<1l, 1000000000l> >::duration<long, void>(long const&)
  0.00     10.02     0.00        1     0.00     0.00  std::common_type<std::chrono::duration<long, std::ratio<1l, 1000000000l> >, std::chrono::duration<long, std::ratio<1l, 1000000000l> > >::type std::chrono::operator-<std::chrono::_V2::system_clock, std::chrono::duration<long, std::ratio<1l, 1000000000l> >, std::chrono::duration<long, std::ratio<1l, 1000000000l> > >(std::chrono::time_point<std::chrono::_V2::system_clock, std::chrono::duration<long, std::ratio<1l, 1000000000l> > > const&, std::chrono::time_point<std::chrono::_V2::system_clock, std::chrono::duration<long, std::ratio<1l, 1000000000l> > > const&)
  0.00     10.02     0.00        1     0.00     0.00  std::common_type<std::chrono::duration<long, std::ratio<1l, 1000000000l> >, std::chrono::duration<long, std::ratio<1l, 1000000000l> > >::type std::chrono::operator-<long, std::ratio<1l, 1000000000l>, long, std::ratio<1l, 1000000000l> >(std::chrono::duration<long, std::ratio<1l, 1000000000l> > const&, std::chrono::duration<long, std::ratio<1l, 1000000000l> > const&)
  0.00     10.02     0.00        1     0.00     1.53  stbi_load
  0.00     10.02     0.00        1     0.00     1.53  stbi_load_from_file

 %         the percentage of the total running time of the
time       program used by this function.

cumulative a running sum of the number of seconds accounted
 seconds   for by this function and those listed above it.

 self      the number of seconds accounted for by this
seconds    function alone.  This is the major sort for this
           listing.

calls      the number of times this function was invoked, if
           this function is profiled, else blank.

 self      the average number of milliseconds spent in this
ms/call    function per call, if this function is profiled,
	   else blank.

 total     the average number of milliseconds spent in this
ms/call    function and its descendents per call, if this
	   function is profiled, else blank.

name       the name of the function.  This is the minor sort
           for this listing. The index shows the location of
	   the function in the gprof listing. If the index is
	   in parenthesis it shows where it would appear in
	   the gprof listing if it were to be printed.

Copyright (C) 2012-2018 Free Software Foundation, Inc.

Copying and distribution of this file, with or without modification,
are permitted in any medium without royalty provided the copyright
notice and this notice are preserved.

		     Call graph (explanation follows)


granularity: each sample hit covers 2 byte(s) for 0.10% of 10.02 seconds

index % time    self  children    called     name
                                                 <spontaneous>
[1]     99.3    0.23    9.72                 main [1]
                0.31    6.24 16000000/16000000     color(ray const&, hitable*, int) [2]
                0.00    1.53       1/1           earth() [6]
                0.11    1.39 16000000/16000000     camera::get_ray(float, float) [13]
                0.00    0.06       1/1           camera::camera(vec3, vec3, vec3, float, float) [40]
                0.04    0.00  960000/960000      vec3::operator[](int) [42]
                0.02    0.00 16000000/16000000     vec3::operator+=(vec3 const&) [47]
                0.02    0.00       1/1           hitable_list::hitable_list(hitable**, int) [49]
                0.00    0.00  320003/350559530     vec3::vec3(float, float, float) [17]
                0.00    0.00  480000/48701903     std::sqrt(float) [39]
                0.00    0.00  160000/160000      vec3::operator/=(float) [109]
                0.00    0.00       1/1           std::common_type<std::chrono::duration<long, std::ratio<1l, 1000000000l> >, std::chrono::duration<long, std::ratio<1l, 1000000000l> > >::type std::chrono::operator-<std::chrono::_V2::system_clock, std::chrono::duration<long, std::ratio<1l, 1000000000l> >, std::chrono::duration<long, std::ratio<1l, 1000000000l> > >(std::chrono::time_point<std::chrono::_V2::system_clock, std::chrono::duration<long, std::ratio<1l, 1000000000l> > > const&, std::chrono::time_point<std::chrono::_V2::system_clock, std::chrono::duration<long, std::ratio<1l, 1000000000l> > > const&) [148]
                0.00    0.00       1/1           std::chrono::duration<double, std::ratio<1l, 1000l> >::duration<long, std::ratio<1l, 1000000000l>, void>(std::chrono::duration<long, std::ratio<1l, 1000000000l> > const&) [146]
                0.00    0.00       1/2           std::chrono::duration<double, std::ratio<1l, 1000l> >::count() const [126]
-----------------------------------------------
                             8055475             color(ray const&, hitable*, int) [2]
                0.31    6.24 16000000/16000000     main [1]
[2]     65.4    0.31    6.24 16000000+8055475 color(ray const&, hitable*, int) [2]
                0.18    2.69 24055475/24055475     hitable_list::hit(ray const&, float, float, hit_record&) const [3]
                0.06    1.62 8055475/8055475     lambertian::scatter(ray const&, hit_record const&, vec3&, ray&) const [5]
                0.44    0.08 32000000/87448932     operator*(float, vec3 const&) [14]
                0.15    0.33 16000000/16000003     unit_vector(vec3) [23]
                0.22    0.04 16000000/72166425     operator+(vec3 const&, vec3 const&) [16]
                0.15    0.02 8055475/8055475     operator*(vec3 const&, vec3 const&) [33]
                0.05    0.04 24055475/48110950     hit_record::hit_record() [32]
                0.08    0.00 32000000/350559530     vec3::vec3(float, float, float) [17]
                0.03    0.01 8055475/8055475     ray::ray() [43]
                0.04    0.00 16000000/88166425     ray::direction() const [31]
                0.01    0.00 16000000/24055475     vec3::y() const [50]
                0.01    0.00 8055475/176554757     vec3::vec3() [35]
                             8055475             color(ray const&, hitable*, int) [2]
-----------------------------------------------
                0.18    2.69 24055475/24055475     color(ray const&, hitable*, int) [2]
[3]     28.7    0.18    2.69 24055475         hitable_list::hit(ray const&, float, float, hit_record&) const [3]
                0.67    1.93 24055475/24055475     sphere::hit(ray const&, float, float, hit_record&) const [4]
                0.05    0.04 24055475/48110950     hit_record::hit_record() [32]
-----------------------------------------------
                0.67    1.93 24055475/24055475     hitable_list::hit(ray const&, float, float, hit_record&) const [3]
[4]     26.0    0.67    1.93 24055475         sphere::hit(ray const&, float, float, hit_record&) const [4]
                0.54    0.10 40166425/79615357     operator-(vec3 const&, vec3 const&) [15]
                0.06    0.26 8055475/8055475     ray::point_at_parameter(float) const [26]
                0.22    0.04 16110950/32110953     operator/(vec3, float) [21]
                0.15    0.06 8055475/8055475     get_sphere_uv(vec3 const&, float&, float&) [29]
                0.17    0.00 72166425/87559878     dot(vec3 const&, vec3 const&) [30]
                0.17    0.00 72166425/88166425     ray::direction() const [31]
                0.12    0.00 24055475/24055475     ray::origin() const [36]
                0.04    0.00 24166425/48701903     std::sqrt(float) [39]
-----------------------------------------------
                0.06    1.62 8055475/8055475     color(ray const&, hitable*, int) [2]
[5]     16.8    0.06    1.62 8055475         lambertian::scatter(ray const&, hit_record const&, vec3&, ray&) const [5]
                0.24    0.61 8055475/8055475     random_in_unit_sphere() [18]
                0.28    0.05 8055475/8055475     image_texture::value(float, float, vec3 const&) const [25]
                0.22    0.04 16110950/72166425     operator+(vec3 const&, vec3 const&) [16]
                0.11    0.02 8055475/79615357     operator-(vec3 const&, vec3 const&) [15]
                0.04    0.01 8055475/24055475     ray::ray(vec3 const&, vec3 const&) [34]
-----------------------------------------------
                0.00    1.53       1/1           main [1]
[6]     15.2    0.00    1.53       1         earth() [6]
                0.00    1.53       1/1           stbi_load [7]
                0.00    0.00       1/350559530     vec3::vec3(float, float, float) [17]
                0.00    0.00       1/1           image_texture::image_texture(unsigned char*, int, int) [139]
                0.00    0.00       1/1           lambertian::lambertian(texture*) [138]
                0.00    0.00       1/1           sphere::sphere(vec3, float, material*) [140]
-----------------------------------------------
                0.00    1.53       1/1           earth() [6]
[7]     15.2    0.00    1.53       1         stbi_load [7]
                0.00    1.53       1/1           stbi_load_from_file [8]
                0.00    0.00       1/1           stbi__fopen(char const*, char const*) [130]
-----------------------------------------------
                0.00    1.53       1/1           stbi_load [7]
[8]     15.2    0.00    1.53       1         stbi_load_from_file [8]
                0.00    1.53       1/1           stbi__load_and_postprocess_8bit(stbi__context*, int*, int*, int*, int) [10]
                0.00    0.00       1/1           stbi__start_file(stbi__context*, _IO_FILE*) [133]
-----------------------------------------------
                0.00    1.53       1/1           stbi__load_and_postprocess_8bit(stbi__context*, int*, int*, int*, int) [10]
[9]     15.2    0.00    1.53       1         stbi__load_main(stbi__context*, int*, int*, int*, int, stbi__result_info*, int) [9]
                0.00    1.53       1/1           stbi__jpeg_load(stbi__context*, int*, int*, int*, int, stbi__result_info*) [12]
                0.00    0.00       1/1           stbi__jpeg_test(stbi__context*) [60]
-----------------------------------------------
                0.00    1.53       1/1           stbi_load_from_file [8]
[10]    15.2    0.00    1.53       1         stbi__load_and_postprocess_8bit(stbi__context*, int*, int*, int*, int) [10]
                0.00    1.53       1/1           stbi__load_main(stbi__context*, int*, int*, int*, int, stbi__result_info*, int) [9]
-----------------------------------------------
                0.00    1.53       1/1           stbi__jpeg_load(stbi__context*, int*, int*, int*, int, stbi__result_info*) [12]
[11]    15.2    0.00    1.53       1         load_jpeg_image(stbi__jpeg*, int*, int*, int*, int) [11]
                0.00    0.74       1/1           stbi__decode_jpeg_image(stbi__jpeg*) [19]
                0.49    0.00    4096/4096        stbi__YCbCr_to_RGB_simd(unsigned char*, unsigned char const*, unsigned char const*, unsigned char const*, int, int) [22]
                0.30    0.00    8192/8192        stbi__resample_row_hv_2_simd(unsigned char*, unsigned char*, unsigned char*, int, int) [27]
                0.00    0.00    4096/4096        resample_row_1(unsigned char*, unsigned char*, unsigned char*, int, int) [112]
                0.00    0.00       3/9           stbi__malloc(unsigned long) [113]
                0.00    0.00       1/1           stbi__malloc_mad3(int, int, int, int) [134]
                0.00    0.00       1/1           stbi__cleanup_jpeg(stbi__jpeg*) [135]
-----------------------------------------------
                0.00    1.53       1/1           stbi__load_main(stbi__context*, int*, int*, int*, int, stbi__result_info*, int) [9]
[12]    15.2    0.00    1.53       1         stbi__jpeg_load(stbi__context*, int*, int*, int*, int, stbi__result_info*) [12]
                0.00    1.53       1/1           load_jpeg_image(stbi__jpeg*, int*, int*, int*, int) [11]
                0.00    0.00       1/9           stbi__malloc(unsigned long) [113]
                0.00    0.00       1/2           stbi__setup_jpeg(stbi__jpeg*) [120]
-----------------------------------------------
                0.11    1.39 16000000/16000000     main [1]
[13]    15.0    0.11    1.39 16000000         camera::get_ray(float, float) [13]
                0.44    0.08 32000000/87448932     operator*(float, vec3 const&) [14]
                0.43    0.08 32000000/72166425     operator+(vec3 const&, vec3 const&) [16]
                0.22    0.04 16000000/79615357     operator-(vec3 const&, vec3 const&) [15]
                0.08    0.03 16000000/24055475     ray::ray(vec3 const&, vec3 const&) [34]
-----------------------------------------------
                0.00    0.00       4/87448932     camera::camera(vec3, vec3, vec3, float, float) [40]
                0.11    0.02 8055475/87448932     ray::point_at_parameter(float) const [26]
                0.21    0.04 15393453/87448932     random_in_unit_sphere() [18]
                0.44    0.08 32000000/87448932     color(ray const&, hitable*, int) [2]
                0.44    0.08 32000000/87448932     camera::get_ray(float, float) [13]
[14]    14.0    1.19    0.22 87448932         operator*(float, vec3 const&) [14]
                0.22    0.00 87448932/350559530     vec3::vec3(float, float, float) [17]
-----------------------------------------------
                0.00    0.00       4/79615357     camera::camera(vec3, vec3, vec3, float, float) [40]
                0.11    0.02 8055475/79615357     lambertian::scatter(ray const&, hit_record const&, vec3&, ray&) const [5]
                0.21    0.04 15393453/79615357     random_in_unit_sphere() [18]
                0.22    0.04 16000000/79615357     camera::get_ray(float, float) [13]
                0.54    0.10 40166425/79615357     sphere::hit(ray const&, float, float, hit_record&) const [4]
[15]    12.7    1.08    0.20 79615357         operator-(vec3 const&, vec3 const&) [15]
                0.20    0.00 79615357/350559530     vec3::vec3(float, float, float) [17]
-----------------------------------------------
                0.11    0.02 8055475/72166425     ray::point_at_parameter(float) const [26]
                0.22    0.04 16000000/72166425     color(ray const&, hitable*, int) [2]
                0.22    0.04 16110950/72166425     lambertian::scatter(ray const&, hit_record const&, vec3&, ray&) const [5]
                0.43    0.08 32000000/72166425     camera::get_ray(float, float) [13]
[16]    11.6    0.98    0.18 72166425         operator+(vec3 const&, vec3 const&) [16]
                0.18    0.00 72166425/350559530     vec3::vec3(float, float, float) [17]
-----------------------------------------------
                0.00    0.00       1/350559530     earth() [6]
                0.00    0.00       1/350559530     camera::camera(vec3, vec3, vec3, float, float) [40]
                0.00    0.00       2/350559530     cross(vec3 const&, vec3 const&) [65]
                0.00    0.00  320003/350559530     main [1]
                0.02    0.00 8055475/350559530     operator*(vec3 const&, vec3 const&) [33]
                0.02    0.00 8055475/350559530     image_texture::value(float, float, vec3 const&) const [25]
                0.08    0.00 30786906/350559530     random_in_unit_sphere() [18]
                0.08    0.00 32000000/350559530     color(ray const&, hitable*, int) [2]
                0.08    0.00 32110953/350559530     operator/(vec3, float) [21]
                0.18    0.00 72166425/350559530     operator+(vec3 const&, vec3 const&) [16]
                0.20    0.00 79615357/350559530     operator-(vec3 const&, vec3 const&) [15]
                0.22    0.00 87448932/350559530     operator*(float, vec3 const&) [14]
[17]     8.6    0.87    0.00 350559530         vec3::vec3(float, float, float) [17]
-----------------------------------------------
                0.24    0.61 8055475/8055475     lambertian::scatter(ray const&, hit_record const&, vec3&, ray&) const [5]
[18]     8.5    0.24    0.61 8055475         random_in_unit_sphere() [18]
                0.21    0.04 15393453/87448932     operator*(float, vec3 const&) [14]
                0.21    0.04 15393453/79615357     operator-(vec3 const&, vec3 const&) [15]
                0.08    0.00 30786906/350559530     vec3::vec3(float, float, float) [17]
                0.04    0.00 15393453/87559878     dot(vec3 const&, vec3 const&) [30]
                0.01    0.00 8055475/176554757     vec3::vec3() [35]
-----------------------------------------------
                0.00    0.74       1/1           load_jpeg_image(stbi__jpeg*, int*, int*, int*, int) [11]
[19]     7.3    0.00    0.74       1         stbi__decode_jpeg_image(stbi__jpeg*) [19]
                0.03    0.71       1/1           stbi__parse_entropy_coded_data(stbi__jpeg*) [20]
                0.00    0.00       4/7           stbi__process_marker(stbi__jpeg*, int) [58]
                0.00    0.00       1/2           stbi__decode_jpeg_header(stbi__jpeg*, int) [59]
                0.00    0.00       1/1           stbi__process_scan_header(stbi__jpeg*) [64]
                0.00    0.00       6/12          stbi__get_marker(stbi__jpeg*) [61]
-----------------------------------------------
                0.03    0.71       1/1           stbi__decode_jpeg_image(stbi__jpeg*) [19]
[20]     7.3    0.03    0.71       1         stbi__parse_entropy_coded_data(stbi__jpeg*) [20]
                0.48    0.00  786432/786432      stbi__idct_simd(unsigned char*, int, short*) [24]
                0.11    0.12  786432/786432      stbi__jpeg_decode_block(stbi__jpeg*, short*, stbi__huffman*, stbi__huffman*, short*, int, unsigned short*) [28]
                0.00    0.00       1/1           stbi__jpeg_reset(stbi__jpeg*) [132]
-----------------------------------------------
                0.21    0.04 16000003/32110953     unit_vector(vec3) [23]
                0.22    0.04 16110950/32110953     sphere::hit(ray const&, float, float, hit_record&) const [4]
[21]     5.1    0.43    0.08 32110953         operator/(vec3, float) [21]
                0.08    0.00 32110953/350559530     vec3::vec3(float, float, float) [17]
-----------------------------------------------
                0.49    0.00    4096/4096        load_jpeg_image(stbi__jpeg*, int*, int*, int*, int) [11]
[22]     4.9    0.49    0.00    4096         stbi__YCbCr_to_RGB_simd(unsigned char*, unsigned char const*, unsigned char const*, unsigned char const*, int, int) [22]
-----------------------------------------------
                0.00    0.00       3/16000003     camera::camera(vec3, vec3, vec3, float, float) [40]
                0.15    0.33 16000000/16000003     color(ray const&, hitable*, int) [2]
[23]     4.8    0.15    0.33 16000003         unit_vector(vec3) [23]
                0.21    0.04 16000003/32110953     operator/(vec3, float) [21]
                0.05    0.03 16000003/24055478     vec3::length() const [37]
-----------------------------------------------
                0.48    0.00  786432/786432      stbi__parse_entropy_coded_data(stbi__jpeg*) [20]
[24]     4.7    0.48    0.00  786432         stbi__idct_simd(unsigned char*, int, short*) [24]
-----------------------------------------------
                0.28    0.05 8055475/8055475     lambertian::scatter(ray const&, hit_record const&, vec3&, ray&) const [5]
[25]     3.3    0.28    0.05 8055475         image_texture::value(float, float, vec3 const&) const [25]
                0.02    0.00 16110950/16110950     int const& std::min<int>(int const&, int const&) [46]
                0.02    0.00 8055475/350559530     vec3::vec3(float, float, float) [17]
                0.01    0.00 16110950/16110950     int const& std::max<int>(int const&, int const&) [55]
-----------------------------------------------
                0.06    0.26 8055475/8055475     sphere::hit(ray const&, float, float, hit_record&) const [4]
[26]     3.2    0.06    0.26 8055475         ray::point_at_parameter(float) const [26]
                0.11    0.02 8055475/87448932     operator*(float, vec3 const&) [14]
                0.11    0.02 8055475/72166425     operator+(vec3 const&, vec3 const&) [16]
-----------------------------------------------
                0.30    0.00    8192/8192        load_jpeg_image(stbi__jpeg*, int*, int*, int*, int) [11]
[27]     3.0    0.30    0.00    8192         stbi__resample_row_hv_2_simd(unsigned char*, unsigned char*, unsigned char*, int, int) [27]
-----------------------------------------------
                0.11    0.12  786432/786432      stbi__parse_entropy_coded_data(stbi__jpeg*) [20]
[28]     2.3    0.11    0.12  786432         stbi__jpeg_decode_block(stbi__jpeg*, short*, stbi__huffman*, stbi__huffman*, short*, int, unsigned short*) [28]
                0.07    0.02 2111613/2115591     stbi__grow_buffer_unsafe(stbi__jpeg*) [38]
                0.02    0.00 2061561/2061561     stbi__jpeg_huff_decode(stbi__jpeg*, stbi__huffman*) [52]
                0.01    0.00  927641/927641      stbi__extend_receive(stbi__jpeg*, int) [53]
-----------------------------------------------
                0.15    0.06 8055475/8055475     sphere::hit(ray const&, float, float, hit_record&) const [4]
[29]     2.1    0.15    0.06 8055475         get_sphere_uv(vec3 const&, float&, float&) [29]
                0.03    0.01 8055475/24055478     vec3::length() const [37]
                0.02    0.00 8055475/8055475     vec3::z() const [51]
                0.01    0.00 8055475/24055475     vec3::y() const [50]
                0.00    0.00 8055475/8055475     vec3::x() const [108]
-----------------------------------------------
                0.04    0.00 15393453/87559878     random_in_unit_sphere() [18]
                0.17    0.00 72166425/87559878     sphere::hit(ray const&, float, float, hit_record&) const [4]
[30]     2.1    0.21    0.00 87559878         dot(vec3 const&, vec3 const&) [30]
-----------------------------------------------
                0.04    0.00 16000000/88166425     color(ray const&, hitable*, int) [2]
                0.17    0.00 72166425/88166425     sphere::hit(ray const&, float, float, hit_record&) const [4]
[31]     2.1    0.21    0.00 88166425         ray::direction() const [31]
-----------------------------------------------
                0.05    0.04 24055475/48110950     hitable_list::hit(ray const&, float, float, hit_record&) const [3]
                0.05    0.04 24055475/48110950     color(ray const&, hitable*, int) [2]
[32]     1.8    0.10    0.08 48110950         hit_record::hit_record() [32]
                0.08    0.00 96221900/176554757     vec3::vec3() [35]
-----------------------------------------------
                0.15    0.02 8055475/8055475     color(ray const&, hitable*, int) [2]
[33]     1.6    0.15    0.02 8055475         operator*(vec3 const&, vec3 const&) [33]
                0.02    0.00 8055475/350559530     vec3::vec3(float, float, float) [17]
-----------------------------------------------
                0.04    0.01 8055475/24055475     lambertian::scatter(ray const&, hit_record const&, vec3&, ray&) const [5]
                0.08    0.03 16000000/24055475     camera::get_ray(float, float) [13]
[34]     1.6    0.12    0.04 24055475         ray::ray(vec3 const&, vec3 const&) [34]
                0.04    0.00 48110950/176554757     vec3::vec3() [35]
-----------------------------------------------
                0.00    0.00       7/176554757     camera::camera(vec3, vec3, vec3, float, float) [40]
                0.01    0.00 8055475/176554757     random_in_unit_sphere() [18]
                0.01    0.00 8055475/176554757     color(ray const&, hitable*, int) [2]
                0.01    0.00 16110950/176554757     ray::ray() [43]
                0.04    0.00 48110950/176554757     ray::ray(vec3 const&, vec3 const&) [34]
                0.08    0.00 96221900/176554757     hit_record::hit_record() [32]
[35]     1.5    0.16    0.00 176554757         vec3::vec3() [35]
-----------------------------------------------
                0.12    0.00 24055475/24055475     sphere::hit(ray const&, float, float, hit_record&) const [4]
[36]     1.2    0.12    0.00 24055475         ray::origin() const [36]
-----------------------------------------------
                0.03    0.01 8055475/24055478     get_sphere_uv(vec3 const&, float&, float&) [29]
                0.05    0.03 16000003/24055478     unit_vector(vec3) [23]
[37]     1.2    0.08    0.04 24055478         vec3::length() const [37]
                0.04    0.00 24055478/48701903     std::sqrt(float) [39]
-----------------------------------------------
                0.00    0.00    3978/2115591     stbi__extend_receive(stbi__jpeg*, int) [53]
                0.07    0.02 2111613/2115591     stbi__jpeg_decode_block(stbi__jpeg*, short*, stbi__huffman*, stbi__huffman*, short*, int, unsigned short*) [28]
[38]     0.9    0.08    0.02 2115591         stbi__grow_buffer_unsafe(stbi__jpeg*) [38]
                0.02    0.00 4424491/4425107     stbi__get8(stbi__context*) [48]
-----------------------------------------------
                0.00    0.00  480000/48701903     main [1]
                0.04    0.00 24055478/48701903     vec3::length() const [37]
                0.04    0.00 24166425/48701903     sphere::hit(ray const&, float, float, hit_record&) const [4]
[39]     0.8    0.08    0.00 48701903         std::sqrt(float) [39]
-----------------------------------------------
                0.00    0.06       1/1           main [1]
[40]     0.6    0.00    0.06       1         camera::camera(vec3, vec3, vec3, float, float) [40]
                0.06    0.00       1/1           std::tan(float) [41]
                0.00    0.00       3/16000003     unit_vector(vec3) [23]
                0.00    0.00       4/87448932     operator*(float, vec3 const&) [14]
                0.00    0.00       4/79615357     operator-(vec3 const&, vec3 const&) [15]
                0.00    0.00       7/176554757     vec3::vec3() [35]
                0.00    0.00       2/2           cross(vec3 const&, vec3 const&) [65]
                0.00    0.00       1/350559530     vec3::vec3(float, float, float) [17]
-----------------------------------------------
                0.06    0.00       1/1           camera::camera(vec3, vec3, vec3, float, float) [40]
[41]     0.6    0.06    0.00       1         std::tan(float) [41]
-----------------------------------------------
                0.04    0.00  960000/960000      main [1]
[42]     0.4    0.04    0.00  960000         vec3::operator[](int) [42]
-----------------------------------------------
                0.03    0.01 8055475/8055475     color(ray const&, hitable*, int) [2]
[43]     0.4    0.03    0.01 8055475         ray::ray() [43]
                0.01    0.00 16110950/176554757     vec3::vec3() [35]
-----------------------------------------------
                                                 <spontaneous>
[44]     0.3    0.03    0.00                 operator*(vec3 const&, float) [44]
-----------------------------------------------
                                                 <spontaneous>
[45]     0.2    0.02    0.00                 frame_dummy [45]
-----------------------------------------------
                0.02    0.00 16110950/16110950     image_texture::value(float, float, vec3 const&) const [25]
[46]     0.2    0.02    0.00 16110950         int const& std::min<int>(int const&, int const&) [46]
-----------------------------------------------
                0.02    0.00 16000000/16000000     main [1]
[47]     0.2    0.02    0.00 16000000         vec3::operator+=(vec3 const&) [47]
-----------------------------------------------
                0.00    0.00      10/4425107     stbi__process_scan_header(stbi__jpeg*) [64]
                0.00    0.00      11/4425107     stbi__process_frame_header(stbi__jpeg*, int) [63]
                0.00    0.00      22/4425107     stbi__get16be(stbi__context*) [62]
                0.00    0.00      22/4425107     stbi__get_marker(stbi__jpeg*) [61]
                0.00    0.00     551/4425107     stbi__process_marker(stbi__jpeg*, int) [58]
                0.02    0.00 4424491/4425107     stbi__grow_buffer_unsafe(stbi__jpeg*) [38]
[48]     0.2    0.02    0.00 4425107         stbi__get8(stbi__context*) [48]
                0.00    0.00   34571/34572       stbi__refill_buffer(stbi__context*) [111]
-----------------------------------------------
                0.02    0.00       1/1           main [1]
[49]     0.2    0.02    0.00       1         hitable_list::hitable_list(hitable**, int) [49]
                0.00    0.00       1/2           hitable::hitable() [124]
-----------------------------------------------
                0.01    0.00 8055475/24055475     get_sphere_uv(vec3 const&, float&, float&) [29]
                0.01    0.00 16000000/24055475     color(ray const&, hitable*, int) [2]
[50]     0.1    0.02    0.00 24055475         vec3::y() const [50]
-----------------------------------------------
                0.02    0.00 8055475/8055475     get_sphere_uv(vec3 const&, float&, float&) [29]
[51]     0.1    0.02    0.00 8055475         vec3::z() const [51]
-----------------------------------------------
                0.02    0.00 2061561/2061561     stbi__jpeg_decode_block(stbi__jpeg*, short*, stbi__huffman*, stbi__huffman*, short*, int, unsigned short*) [28]
[52]     0.1    0.02    0.00 2061561         stbi__jpeg_huff_decode(stbi__jpeg*, stbi__huffman*) [52]
-----------------------------------------------
                0.01    0.00  927641/927641      stbi__jpeg_decode_block(stbi__jpeg*, short*, stbi__huffman*, stbi__huffman*, short*, int, unsigned short*) [28]
[53]     0.1    0.01    0.00  927641         stbi__extend_receive(stbi__jpeg*, int) [53]
                0.00    0.00    3978/2115591     stbi__grow_buffer_unsafe(stbi__jpeg*) [38]
-----------------------------------------------
                                                 <spontaneous>
[54]     0.1    0.01    0.00                 stbi_is_16_bit_from_callbacks [54]
-----------------------------------------------
                0.01    0.00 16110950/16110950     image_texture::value(float, float, vec3 const&) const [25]
[55]     0.1    0.01    0.00 16110950         int const& std::max<int>(int const&, int const&) [55]
-----------------------------------------------
                                                 <spontaneous>
[56]     0.1    0.01    0.00                 std::pow(float, float) [56]
-----------------------------------------------
                                                 <spontaneous>
[57]     0.0    0.01    0.00                 stbi__idct_block(unsigned char*, int, short*) [57]
-----------------------------------------------
                0.00    0.00       3/7           stbi__decode_jpeg_header(stbi__jpeg*, int) [59]
                0.00    0.00       4/7           stbi__decode_jpeg_image(stbi__jpeg*) [19]
[58]     0.0    0.00    0.00       7         stbi__process_marker(stbi__jpeg*, int) [58]
                0.00    0.00     551/4425107     stbi__get8(stbi__context*) [48]
                0.00    0.00       7/11          stbi__get16be(stbi__context*) [62]
                0.00    0.00       4/4           stbi__build_huffman(stbi__huffman*, int*) [116]
                0.00    0.00       2/2           stbi__build_fast_ac(short*, stbi__huffman*) [121]
                0.00    0.00       1/1           stbi__skip(stbi__context*, int) [129]
-----------------------------------------------
                0.00    0.00       1/2           stbi__decode_jpeg_image(stbi__jpeg*) [19]
                0.00    0.00       1/2           stbi__jpeg_test(stbi__context*) [60]
[59]     0.0    0.00    0.00       2         stbi__decode_jpeg_header(stbi__jpeg*, int) [59]
                0.00    0.00       3/7           stbi__process_marker(stbi__jpeg*, int) [58]
                0.00    0.00       1/1           stbi__process_frame_header(stbi__jpeg*, int) [63]
                0.00    0.00       6/12          stbi__get_marker(stbi__jpeg*) [61]
-----------------------------------------------
                0.00    0.00       1/1           stbi__load_main(stbi__context*, int*, int*, int*, int, stbi__result_info*, int) [9]
[60]     0.0    0.00    0.00       1         stbi__jpeg_test(stbi__context*) [60]
                0.00    0.00       1/2           stbi__decode_jpeg_header(stbi__jpeg*, int) [59]
                0.00    0.00       1/9           stbi__malloc(unsigned long) [113]
                0.00    0.00       1/2           stbi__setup_jpeg(stbi__jpeg*) [120]
                0.00    0.00       1/1           stbi__rewind(stbi__context*) [131]
-----------------------------------------------
                0.00    0.00       6/12          stbi__decode_jpeg_header(stbi__jpeg*, int) [59]
                0.00    0.00       6/12          stbi__decode_jpeg_image(stbi__jpeg*) [19]
[61]     0.0    0.00    0.00      12         stbi__get_marker(stbi__jpeg*) [61]
                0.00    0.00      22/4425107     stbi__get8(stbi__context*) [48]
-----------------------------------------------
                0.00    0.00       1/11          stbi__process_scan_header(stbi__jpeg*) [64]
                0.00    0.00       3/11          stbi__process_frame_header(stbi__jpeg*, int) [63]
                0.00    0.00       7/11          stbi__process_marker(stbi__jpeg*, int) [58]
[62]     0.0    0.00    0.00      11         stbi__get16be(stbi__context*) [62]
                0.00    0.00      22/4425107     stbi__get8(stbi__context*) [48]
-----------------------------------------------
                0.00    0.00       1/1           stbi__decode_jpeg_header(stbi__jpeg*, int) [59]
[63]     0.0    0.00    0.00       1         stbi__process_frame_header(stbi__jpeg*, int) [63]
                0.00    0.00      11/4425107     stbi__get8(stbi__context*) [48]
                0.00    0.00       3/11          stbi__get16be(stbi__context*) [62]
                0.00    0.00       3/3           stbi__malloc_mad2(int, int, int) [117]
                0.00    0.00       1/2           stbi__mad3sizes_valid(int, int, int, int) [123]
-----------------------------------------------
                0.00    0.00       1/1           stbi__decode_jpeg_image(stbi__jpeg*) [19]
[64]     0.0    0.00    0.00       1         stbi__process_scan_header(stbi__jpeg*) [64]
                0.00    0.00      10/4425107     stbi__get8(stbi__context*) [48]
                0.00    0.00       1/11          stbi__get16be(stbi__context*) [62]
-----------------------------------------------
                0.00    0.00       2/2           camera::camera(vec3, vec3, vec3, float, float) [40]
[65]     0.0    0.00    0.00       2         cross(vec3 const&, vec3 const&) [65]
                0.00    0.00       2/350559530     vec3::vec3(float, float, float) [17]
-----------------------------------------------
                0.00    0.00 8055475/8055475     get_sphere_uv(vec3 const&, float&, float&) [29]
[108]    0.0    0.00    0.00 8055475         vec3::x() const [108]
-----------------------------------------------
                0.00    0.00  160000/160000      main [1]
[109]    0.0    0.00    0.00  160000         vec3::operator/=(float) [109]
-----------------------------------------------
                0.00    0.00   34572/34572       stbi__refill_buffer(stbi__context*) [111]
[110]    0.0    0.00    0.00   34572         stbi__stdio_read(void*, char*, int) [110]
-----------------------------------------------
                0.00    0.00       1/34572       stbi__start_callbacks(stbi__context*, stbi_io_callbacks*, void*) [136]
                0.00    0.00   34571/34572       stbi__get8(stbi__context*) [48]
[111]    0.0    0.00    0.00   34572         stbi__refill_buffer(stbi__context*) [111]
                0.00    0.00   34572/34572       stbi__stdio_read(void*, char*, int) [110]
-----------------------------------------------
                0.00    0.00    4096/4096        load_jpeg_image(stbi__jpeg*, int*, int*, int*, int) [11]
[112]    0.0    0.00    0.00    4096         resample_row_1(unsigned char*, unsigned char*, unsigned char*, int, int) [112]
-----------------------------------------------
                0.00    0.00       1/9           stbi__malloc_mad3(int, int, int, int) [134]
                0.00    0.00       1/9           stbi__jpeg_load(stbi__context*, int*, int*, int*, int, stbi__result_info*) [12]
                0.00    0.00       1/9           stbi__jpeg_test(stbi__context*) [60]
                0.00    0.00       3/9           stbi__malloc_mad2(int, int, int) [117]
                0.00    0.00       3/9           load_jpeg_image(stbi__jpeg*, int*, int*, int*, int) [11]
[113]    0.0    0.00    0.00       9         stbi__malloc(unsigned long) [113]
-----------------------------------------------
                0.00    0.00       3/7           stbi__mad2sizes_valid(int, int, int) [118]
                0.00    0.00       4/7           stbi__mad3sizes_valid(int, int, int, int) [123]
[114]    0.0    0.00    0.00       7         stbi__mul2sizes_valid(int, int) [114]
-----------------------------------------------
                0.00    0.00       2/5           stbi__mad3sizes_valid(int, int, int, int) [123]
                0.00    0.00       3/5           stbi__mad2sizes_valid(int, int, int) [118]
[115]    0.0    0.00    0.00       5         stbi__addsizes_valid(int, int) [115]
-----------------------------------------------
                0.00    0.00       4/4           stbi__process_marker(stbi__jpeg*, int) [58]
[116]    0.0    0.00    0.00       4         stbi__build_huffman(stbi__huffman*, int*) [116]
-----------------------------------------------
                0.00    0.00       3/3           stbi__process_frame_header(stbi__jpeg*, int) [63]
[117]    0.0    0.00    0.00       3         stbi__malloc_mad2(int, int, int) [117]
                0.00    0.00       3/3           stbi__mad2sizes_valid(int, int, int) [118]
                0.00    0.00       3/9           stbi__malloc(unsigned long) [113]
-----------------------------------------------
                0.00    0.00       3/3           stbi__malloc_mad2(int, int, int) [117]
[118]    0.0    0.00    0.00       3         stbi__mad2sizes_valid(int, int, int) [118]
                0.00    0.00       3/7           stbi__mul2sizes_valid(int, int) [114]
                0.00    0.00       3/5           stbi__addsizes_valid(int, int) [115]
-----------------------------------------------
                0.00    0.00       1/3           std::chrono::duration<double, std::ratio<1l, 1000l> > std::chrono::__duration_cast_impl<std::chrono::duration<double, std::ratio<1l, 1000l> >, std::ratio<1l, 1000000l>, double, true, false>::__cast<long, std::ratio<1l, 1000000000l> >(std::chrono::duration<long, std::ratio<1l, 1000000000l> > const&) [144]
                0.00    0.00       2/3           std::common_type<std::chrono::duration<long, std::ratio<1l, 1000000000l> >, std::chrono::duration<long, std::ratio<1l, 1000000000l> > >::type std::chrono::operator-<long, std::ratio<1l, 1000000000l>, long, std::ratio<1l, 1000000000l> >(std::chrono::duration<long, std::ratio<1l, 1000000000l> > const&, std::chrono::duration<long, std::ratio<1l, 1000000000l> > const&) [149]
[119]    0.0    0.00    0.00       3         std::chrono::duration<long, std::ratio<1l, 1000000000l> >::count() const [119]
-----------------------------------------------
                0.00    0.00       1/2           stbi__jpeg_load(stbi__context*, int*, int*, int*, int, stbi__result_info*) [12]
                0.00    0.00       1/2           stbi__jpeg_test(stbi__context*) [60]
[120]    0.0    0.00    0.00       2         stbi__setup_jpeg(stbi__jpeg*) [120]
                0.00    0.00       2/2           stbi__sse2_available() [122]
-----------------------------------------------
                0.00    0.00       2/2           stbi__process_marker(stbi__jpeg*, int) [58]
[121]    0.0    0.00    0.00       2         stbi__build_fast_ac(short*, stbi__huffman*) [121]
-----------------------------------------------
                0.00    0.00       2/2           stbi__setup_jpeg(stbi__jpeg*) [120]
[122]    0.0    0.00    0.00       2         stbi__sse2_available() [122]
-----------------------------------------------
                0.00    0.00       1/2           stbi__malloc_mad3(int, int, int, int) [134]
                0.00    0.00       1/2           stbi__process_frame_header(stbi__jpeg*, int) [63]
[123]    0.0    0.00    0.00       2         stbi__mad3sizes_valid(int, int, int, int) [123]
                0.00    0.00       4/7           stbi__mul2sizes_valid(int, int) [114]
                0.00    0.00       2/5           stbi__addsizes_valid(int, int) [115]
-----------------------------------------------
                0.00    0.00       1/2           hitable_list::hitable_list(hitable**, int) [49]
                0.00    0.00       1/2           sphere::sphere(vec3, float, material*) [140]
[124]    0.0    0.00    0.00       2         hitable::hitable() [124]
-----------------------------------------------
                0.00    0.00       2/2           std::common_type<std::chrono::duration<long, std::ratio<1l, 1000000000l> >, std::chrono::duration<long, std::ratio<1l, 1000000000l> > >::type std::chrono::operator-<std::chrono::_V2::system_clock, std::chrono::duration<long, std::ratio<1l, 1000000000l> >, std::chrono::duration<long, std::ratio<1l, 1000000000l> > >(std::chrono::time_point<std::chrono::_V2::system_clock, std::chrono::duration<long, std::ratio<1l, 1000000000l> > > const&, std::chrono::time_point<std::chrono::_V2::system_clock, std::chrono::duration<long, std::ratio<1l, 1000000000l> > > const&) [148]
[125]    0.0    0.00    0.00       2         std::chrono::time_point<std::chrono::_V2::system_clock, std::chrono::duration<long, std::ratio<1l, 1000000000l> > >::time_since_epoch() const [125]
-----------------------------------------------
                0.00    0.00       1/2           main [1]
                0.00    0.00       1/2           std::chrono::duration<double, std::ratio<1l, 1000l> >::duration<long, std::ratio<1l, 1000000000l>, void>(std::chrono::duration<long, std::ratio<1l, 1000000000l> > const&) [146]
[126]    0.0    0.00    0.00       2         std::chrono::duration<double, std::ratio<1l, 1000l> >::count() const [126]
-----------------------------------------------
                0.00    0.00       1/1           __libc_csu_init [282]
[127]    0.0    0.00    0.00       1         _GLOBAL__sub_I__ZNK12hitable_list3hitERK3rayffR10hit_record [127]
                0.00    0.00       1/1           __static_initialization_and_destruction_0(int, int) [128]
-----------------------------------------------
                0.00    0.00       1/1           _GLOBAL__sub_I__ZNK12hitable_list3hitERK3rayffR10hit_record [127]
[128]    0.0    0.00    0.00       1         __static_initialization_and_destruction_0(int, int) [128]
-----------------------------------------------
                0.00    0.00       1/1           stbi__process_marker(stbi__jpeg*, int) [58]
[129]    0.0    0.00    0.00       1         stbi__skip(stbi__context*, int) [129]
-----------------------------------------------
                0.00    0.00       1/1           stbi_load [7]
[130]    0.0    0.00    0.00       1         stbi__fopen(char const*, char const*) [130]
-----------------------------------------------
                0.00    0.00       1/1           stbi__jpeg_test(stbi__context*) [60]
[131]    0.0    0.00    0.00       1         stbi__rewind(stbi__context*) [131]
-----------------------------------------------
                0.00    0.00       1/1           stbi__parse_entropy_coded_data(stbi__jpeg*) [20]
[132]    0.0    0.00    0.00       1         stbi__jpeg_reset(stbi__jpeg*) [132]
-----------------------------------------------
                0.00    0.00       1/1           stbi_load_from_file [8]
[133]    0.0    0.00    0.00       1         stbi__start_file(stbi__context*, _IO_FILE*) [133]
                0.00    0.00       1/1           stbi__start_callbacks(stbi__context*, stbi_io_callbacks*, void*) [136]
-----------------------------------------------
                0.00    0.00       1/1           load_jpeg_image(stbi__jpeg*, int*, int*, int*, int) [11]
[134]    0.0    0.00    0.00       1         stbi__malloc_mad3(int, int, int, int) [134]
                0.00    0.00       1/2           stbi__mad3sizes_valid(int, int, int, int) [123]
                0.00    0.00       1/9           stbi__malloc(unsigned long) [113]
-----------------------------------------------
                0.00    0.00       1/1           load_jpeg_image(stbi__jpeg*, int*, int*, int*, int) [11]
[135]    0.0    0.00    0.00       1         stbi__cleanup_jpeg(stbi__jpeg*) [135]
                0.00    0.00       1/1           stbi__free_jpeg_components(stbi__jpeg*, int, int) [137]
-----------------------------------------------
                0.00    0.00       1/1           stbi__start_file(stbi__context*, _IO_FILE*) [133]
[136]    0.0    0.00    0.00       1         stbi__start_callbacks(stbi__context*, stbi_io_callbacks*, void*) [136]
                0.00    0.00       1/34572       stbi__refill_buffer(stbi__context*) [111]
-----------------------------------------------
                0.00    0.00       1/1           stbi__cleanup_jpeg(stbi__jpeg*) [135]
[137]    0.0    0.00    0.00       1         stbi__free_jpeg_components(stbi__jpeg*, int, int) [137]
-----------------------------------------------
                0.00    0.00       1/1           earth() [6]
[138]    0.0    0.00    0.00       1         lambertian::lambertian(texture*) [138]
                0.00    0.00       1/1           material::material() [142]
-----------------------------------------------
                0.00    0.00       1/1           earth() [6]
[139]    0.0    0.00    0.00       1         image_texture::image_texture(unsigned char*, int, int) [139]
                0.00    0.00       1/1           texture::texture() [141]
-----------------------------------------------
                0.00    0.00       1/1           earth() [6]
[140]    0.0    0.00    0.00       1         sphere::sphere(vec3, float, material*) [140]
                0.00    0.00       1/2           hitable::hitable() [124]
-----------------------------------------------
                0.00    0.00       1/1           image_texture::image_texture(unsigned char*, int, int) [139]
[141]    0.0    0.00    0.00       1         texture::texture() [141]
-----------------------------------------------
                0.00    0.00       1/1           lambertian::lambertian(texture*) [138]
[142]    0.0    0.00    0.00       1         material::material() [142]
-----------------------------------------------
                0.00    0.00       1/1           std::chrono::duration<double, std::ratio<1l, 1000l> >::duration<long, std::ratio<1l, 1000000000l>, void>(std::chrono::duration<long, std::ratio<1l, 1000000000l> > const&) [146]
[143]    0.0    0.00    0.00       1         std::enable_if<std::chrono::__is_duration<std::chrono::duration<double, std::ratio<1l, 1000l> > >::value, std::chrono::duration<double, std::ratio<1l, 1000l> > >::type std::chrono::duration_cast<std::chrono::duration<double, std::ratio<1l, 1000l> >, long, std::ratio<1l, 1000000000l> >(std::chrono::duration<long, std::ratio<1l, 1000000000l> > const&) [143]
                0.00    0.00       1/1           std::chrono::duration<double, std::ratio<1l, 1000l> > std::chrono::__duration_cast_impl<std::chrono::duration<double, std::ratio<1l, 1000l> >, std::ratio<1l, 1000000l>, double, true, false>::__cast<long, std::ratio<1l, 1000000000l> >(std::chrono::duration<long, std::ratio<1l, 1000000000l> > const&) [144]
-----------------------------------------------
                0.00    0.00       1/1           std::enable_if<std::chrono::__is_duration<std::chrono::duration<double, std::ratio<1l, 1000l> > >::value, std::chrono::duration<double, std::ratio<1l, 1000l> > >::type std::chrono::duration_cast<std::chrono::duration<double, std::ratio<1l, 1000l> >, long, std::ratio<1l, 1000000000l> >(std::chrono::duration<long, std::ratio<1l, 1000000000l> > const&) [143]
[144]    0.0    0.00    0.00       1         std::chrono::duration<double, std::ratio<1l, 1000l> > std::chrono::__duration_cast_impl<std::chrono::duration<double, std::ratio<1l, 1000l> >, std::ratio<1l, 1000000l>, double, true, false>::__cast<long, std::ratio<1l, 1000000000l> >(std::chrono::duration<long, std::ratio<1l, 1000000000l> > const&) [144]
                0.00    0.00       1/3           std::chrono::duration<long, std::ratio<1l, 1000000000l> >::count() const [119]
                0.00    0.00       1/1           std::chrono::duration<double, std::ratio<1l, 1000l> >::duration<double, void>(double const&) [145]
-----------------------------------------------
                0.00    0.00       1/1           std::chrono::duration<double, std::ratio<1l, 1000l> > std::chrono::__duration_cast_impl<std::chrono::duration<double, std::ratio<1l, 1000l> >, std::ratio<1l, 1000000l>, double, true, false>::__cast<long, std::ratio<1l, 1000000000l> >(std::chrono::duration<long, std::ratio<1l, 1000000000l> > const&) [144]
[145]    0.0    0.00    0.00       1         std::chrono::duration<double, std::ratio<1l, 1000l> >::duration<double, void>(double const&) [145]
-----------------------------------------------
                0.00    0.00       1/1           main [1]
[146]    0.0    0.00    0.00       1         std::chrono::duration<double, std::ratio<1l, 1000l> >::duration<long, std::ratio<1l, 1000000000l>, void>(std::chrono::duration<long, std::ratio<1l, 1000000000l> > const&) [146]
                0.00    0.00       1/1           std::enable_if<std::chrono::__is_duration<std::chrono::duration<double, std::ratio<1l, 1000l> > >::value, std::chrono::duration<double, std::ratio<1l, 1000l> > >::type std::chrono::duration_cast<std::chrono::duration<double, std::ratio<1l, 1000l> >, long, std::ratio<1l, 1000000000l> >(std::chrono::duration<long, std::ratio<1l, 1000000000l> > const&) [143]
                0.00    0.00       1/2           std::chrono::duration<double, std::ratio<1l, 1000l> >::count() const [126]
-----------------------------------------------
                0.00    0.00       1/1           std::common_type<std::chrono::duration<long, std::ratio<1l, 1000000000l> >, std::chrono::duration<long, std::ratio<1l, 1000000000l> > >::type std::chrono::operator-<long, std::ratio<1l, 1000000000l>, long, std::ratio<1l, 1000000000l> >(std::chrono::duration<long, std::ratio<1l, 1000000000l> > const&, std::chrono::duration<long, std::ratio<1l, 1000000000l> > const&) [149]
[147]    0.0    0.00    0.00       1         std::chrono::duration<long, std::ratio<1l, 1000000000l> >::duration<long, void>(long const&) [147]
-----------------------------------------------
                0.00    0.00       1/1           main [1]
[148]    0.0    0.00    0.00       1         std::common_type<std::chrono::duration<long, std::ratio<1l, 1000000000l> >, std::chrono::duration<long, std::ratio<1l, 1000000000l> > >::type std::chrono::operator-<std::chrono::_V2::system_clock, std::chrono::duration<long, std::ratio<1l, 1000000000l> >, std::chrono::duration<long, std::ratio<1l, 1000000000l> > >(std::chrono::time_point<std::chrono::_V2::system_clock, std::chrono::duration<long, std::ratio<1l, 1000000000l> > > const&, std::chrono::time_point<std::chrono::_V2::system_clock, std::chrono::duration<long, std::ratio<1l, 1000000000l> > > const&) [148]
                0.00    0.00       2/2           std::chrono::time_point<std::chrono::_V2::system_clock, std::chrono::duration<long, std::ratio<1l, 1000000000l> > >::time_since_epoch() const [125]
                0.00    0.00       1/1           std::common_type<std::chrono::duration<long, std::ratio<1l, 1000000000l> >, std::chrono::duration<long, std::ratio<1l, 1000000000l> > >::type std::chrono::operator-<long, std::ratio<1l, 1000000000l>, long, std::ratio<1l, 1000000000l> >(std::chrono::duration<long, std::ratio<1l, 1000000000l> > const&, std::chrono::duration<long, std::ratio<1l, 1000000000l> > const&) [149]
-----------------------------------------------
                0.00    0.00       1/1           std::common_type<std::chrono::duration<long, std::ratio<1l, 1000000000l> >, std::chrono::duration<long, std::ratio<1l, 1000000000l> > >::type std::chrono::operator-<std::chrono::_V2::system_clock, std::chrono::duration<long, std::ratio<1l, 1000000000l> >, std::chrono::duration<long, std::ratio<1l, 1000000000l> > >(std::chrono::time_point<std::chrono::_V2::system_clock, std::chrono::duration<long, std::ratio<1l, 1000000000l> > > const&, std::chrono::time_point<std::chrono::_V2::system_clock, std::chrono::duration<long, std::ratio<1l, 1000000000l> > > const&) [148]
[149]    0.0    0.00    0.00       1         std::common_type<std::chrono::duration<long, std::ratio<1l, 1000000000l> >, std::chrono::duration<long, std::ratio<1l, 1000000000l> > >::type std::chrono::operator-<long, std::ratio<1l, 1000000000l>, long, std::ratio<1l, 1000000000l> >(std::chrono::duration<long, std::ratio<1l, 1000000000l> > const&, std::chrono::duration<long, std::ratio<1l, 1000000000l> > const&) [149]
                0.00    0.00       2/3           std::chrono::duration<long, std::ratio<1l, 1000000000l> >::count() const [119]
                0.00    0.00       1/1           std::chrono::duration<long, std::ratio<1l, 1000000000l> >::duration<long, void>(long const&) [147]
-----------------------------------------------

 This table describes the call tree of the program, and was sorted by
 the total amount of time spent in each function and its children.

 Each entry in this table consists of several lines.  The line with the
 index number at the left hand margin lists the current function.
 The lines above it list the functions that called this function,
 and the lines below it list the functions this one called.
 This line lists:
     index	A unique number given to each element of the table.
		Index numbers are sorted numerically.
		The index number is printed next to every function name so
		it is easier to look up where the function is in the table.

     % time	This is the percentage of the `total' time that was spent
		in this function and its children.  Note that due to
		different viewpoints, functions excluded by options, etc,
		these numbers will NOT add up to 100%.

     self	This is the total amount of time spent in this function.

     children	This is the total amount of time propagated into this
		function by its children.

     called	This is the number of times the function was called.
		If the function called itself recursively, the number
		only includes non-recursive calls, and is followed by
		a `+' and the number of recursive calls.

     name	The name of the current function.  The index number is
		printed after it.  If the function is a member of a
		cycle, the cycle number is printed between the
		function's name and the index number.


 For the function's parents, the fields have the following meanings:

     self	This is the amount of time that was propagated directly
		from the function into this parent.

     children	This is the amount of time that was propagated from
		the function's children into this parent.

     called	This is the number of times this parent called the
		function `/' the total number of times the function
		was called.  Recursive calls to the function are not
		included in the number after the `/'.

     name	This is the name of the parent.  The parent's index
		number is printed after it.  If the parent is a
		member of a cycle, the cycle number is printed between
		the name and the index number.

 If the parents of the function cannot be determined, the word
 `<spontaneous>' is printed in the `name' field, and all the other
 fields are blank.

 For the function's children, the fields have the following meanings:

     self	This is the amount of time that was propagated directly
		from the child into the function.

     children	This is the amount of time that was propagated from the
		child's children to the function.

     called	This is the number of times the function called
		this child `/' the total number of times the child
		was called.  Recursive calls by the child are not
		listed in the number after the `/'.

     name	This is the name of the child.  The child's index
		number is printed after it.  If the child is a
		member of a cycle, the cycle number is printed
		between the name and the index number.

 If there are any cycles (circles) in the call graph, there is an
 entry for the cycle-as-a-whole.  This entry shows who called the
 cycle (as parents) and the members of the cycle (as children.)
 The `+' recursive calls entry shows the number of function calls that
 were internal to the cycle, and the calls entry for each member shows,
 for that member, how many times it was called from other members of
 the cycle.

Copyright (C) 2012-2018 Free Software Foundation, Inc.

Copying and distribution of this file, with or without modification,
are permitted in any medium without royalty provided the copyright
notice and this notice are preserved.

Index by function name

 [127] _GLOBAL__sub_I__ZNK12hitable_list3hitERK3rayffR10hit_record (main.cpp) [122] stbi__sse2_available() (stb_image.h) [25] image_texture::value(float, float, vec3 const&) const
  [23] unit_vector(vec3)     [118] stbi__mad2sizes_valid(int, int, int) (stb_image.h) [26] ray::point_at_parameter(float) const
  [29] get_sphere_uv(vec3 const&, float&, float&) [123] stbi__mad3sizes_valid(int, int, int, int) (stb_image.h) [36] ray::origin() const
  [18] random_in_unit_sphere() [114] stbi__mul2sizes_valid(int, int) (stb_image.h) [31] ray::direction() const
  [30] dot(vec3 const&, vec3 const&) [136] stbi__start_callbacks(stbi__context*, stbi_io_callbacks*, void*) (stb_image.h) [108] vec3::x() const
 [128] __static_initialization_and_destruction_0(int, int) (main.cpp) [52] stbi__jpeg_huff_decode(stbi__jpeg*, stbi__huffman*) (stb_image.h) [50] vec3::y() const
   [2] color(ray const&, hitable*, int) [22] stbi__YCbCr_to_RGB_simd(unsigned char*, unsigned char const*, unsigned char const*, unsigned char const*, int, int) (stb_image.h) [51] vec3::z() const
  [65] cross(vec3 const&, vec3 const&) [19] stbi__decode_jpeg_image(stbi__jpeg*) (stb_image.h) [37] vec3::length() const
   [6] earth()                [28] stbi__jpeg_decode_block(stbi__jpeg*, short*, stbi__huffman*, stbi__huffman*, short*, int, unsigned short*) (stb_image.h) [4] sphere::hit(ray const&, float, float, hit_record&) const
  [48] stbi__get8(stbi__context*) (stb_image.h) [59] stbi__decode_jpeg_header(stbi__jpeg*, int) (stb_image.h) [125] std::chrono::time_point<std::chrono::_V2::system_clock, std::chrono::duration<long, std::ratio<1l, 1000000000l> > >::time_since_epoch() const
 [129] stbi__skip(stbi__context*, int) (stb_image.h) [38] stbi__grow_buffer_unsafe(stbi__jpeg*) (stb_image.h) [126] std::chrono::duration<double, std::ratio<1l, 1000l> >::count() const
 [130] stbi__fopen(char const*, char const*) (stb_image.h) [64] stbi__process_scan_header(stbi__jpeg*) (stb_image.h) [119] std::chrono::duration<long, std::ratio<1l, 1000000000l> >::count() const
 [113] stbi__malloc(unsigned long) (stb_image.h) [137] stbi__free_jpeg_components(stbi__jpeg*, int, int) (stb_image.h) [143] std::enable_if<std::chrono::__is_duration<std::chrono::duration<double, std::ratio<1l, 1000l> > >::value, std::chrono::duration<double, std::ratio<1l, 1000l> > >::type std::chrono::duration_cast<std::chrono::duration<double, std::ratio<1l, 1000l> >, long, std::ratio<1l, 1000000000l> >(std::chrono::duration<long, std::ratio<1l, 1000000000l> > const&)
 [131] stbi__rewind(stbi__context*) (stb_image.h) [63] stbi__process_frame_header(stbi__jpeg*, int) (stb_image.h) [144] std::chrono::duration<double, std::ratio<1l, 1000l> > std::chrono::__duration_cast_impl<std::chrono::duration<double, std::ratio<1l, 1000l> >, std::ratio<1l, 1000000l>, double, true, false>::__cast<long, std::ratio<1l, 1000000000l> >(std::chrono::duration<long, std::ratio<1l, 1000000000l> > const&)
  [62] stbi__get16be(stbi__context*) (stb_image.h) [27] stbi__resample_row_hv_2_simd(unsigned char*, unsigned char*, unsigned char*, int, int) (stb_image.h) [145] std::chrono::duration<double, std::ratio<1l, 1000l> >::duration<double, void>(double const&)
 [112] resample_row_1(unsigned char*, unsigned char*, unsigned char*, int, int) (stb_image.h) [20] stbi__parse_entropy_coded_data(stbi__jpeg*) (stb_image.h) [146] std::chrono::duration<double, std::ratio<1l, 1000l> >::duration<long, std::ratio<1l, 1000000000l>, void>(std::chrono::duration<long, std::ratio<1l, 1000000000l> > const&)
  [11] load_jpeg_image(stbi__jpeg*, int*, int*, int*, int) (stb_image.h) [10] stbi__load_and_postprocess_8bit(stbi__context*, int*, int*, int*, int) (stb_image.h) [147] std::chrono::duration<long, std::ratio<1l, 1000000000l> >::duration<long, void>(long const&)
  [24] stbi__idct_simd(unsigned char*, int, short*) (stb_image.h) [32] hit_record::hit_record() [148] std::common_type<std::chrono::duration<long, std::ratio<1l, 1000000000l> >, std::chrono::duration<long, std::ratio<1l, 1000000000l> > >::type std::chrono::operator-<std::chrono::_V2::system_clock, std::chrono::duration<long, std::ratio<1l, 1000000000l> >, std::chrono::duration<long, std::ratio<1l, 1000000000l> > >(std::chrono::time_point<std::chrono::_V2::system_clock, std::chrono::duration<long, std::ratio<1l, 1000000000l> > > const&, std::chrono::time_point<std::chrono::_V2::system_clock, std::chrono::duration<long, std::ratio<1l, 1000000000l> > > const&)
  [12] stbi__jpeg_load(stbi__context*, int*, int*, int*, int, stbi__result_info*) (stb_image.h) [138] lambertian::lambertian(texture*) [149] std::common_type<std::chrono::duration<long, std::ratio<1l, 1000000000l> >, std::chrono::duration<long, std::ratio<1l, 1000000000l> > >::type std::chrono::operator-<long, std::ratio<1l, 1000000000l>, long, std::ratio<1l, 1000000000l> >(std::chrono::duration<long, std::ratio<1l, 1000000000l> > const&, std::chrono::duration<long, std::ratio<1l, 1000000000l> > const&)
  [60] stbi__jpeg_test(stbi__context*) (stb_image.h) [49] hitable_list::hitable_list(hitable**, int) [55] int const& std::max<int>(int const&, int const&)
   [9] stbi__load_main(stbi__context*, int*, int*, int*, int, stbi__result_info*, int) (stb_image.h) [139] image_texture::image_texture(unsigned char*, int, int) [46] int const& std::min<int>(int const&, int const&)
  [61] stbi__get_marker(stbi__jpeg*) (stb_image.h) [34] ray::ray(vec3 const&, vec3 const&) [56] std::pow(float, float)
  [57] stbi__idct_block(unsigned char*, int, short*) (stb_image.h) [43] ray::ray() [41] std::tan(float)
 [132] stbi__jpeg_reset(stbi__jpeg*) (stb_image.h) [17] vec3::vec3(float, float, float) [39] std::sqrt(float)
 [120] stbi__setup_jpeg(stbi__jpeg*) (stb_image.h) [35] vec3::vec3() [21] operator/(vec3, float)
 [133] stbi__start_file(stbi__context*, _IO_FILE*) (stb_image.h) [109] vec3::operator/=(float) [15] operator-(vec3 const&, vec3 const&)
 [110] stbi__stdio_read(void*, char*, int) (stb_image.h) [42] vec3::operator[](int) [33] operator*(vec3 const&, vec3 const&)
 [117] stbi__malloc_mad2(int, int, int) (stb_image.h) [47] vec3::operator+=(vec3 const&) [44] operator*(vec3 const&, float)
 [134] stbi__malloc_mad3(int, int, int, int) (stb_image.h) [13] camera::get_ray(float, float) [14] operator*(float, vec3 const&)
 [135] stbi__cleanup_jpeg(stbi__jpeg*) (stb_image.h) [40] camera::camera(vec3, vec3, vec3, float, float) [16] operator+(vec3 const&, vec3 const&)
 [121] stbi__build_fast_ac(short*, stbi__huffman*) (stb_image.h) [140] sphere::sphere(vec3, float, material*) [45] frame_dummy
 [116] stbi__build_huffman(stbi__huffman*, int*) (stb_image.h) [124] hitable::hitable() [1] main
 [111] stbi__refill_buffer(stbi__context*) (stb_image.h) [141] texture::texture() [54] stbi_is_16_bit_from_callbacks
 [115] stbi__addsizes_valid(int, int) (stb_image.h) [142] material::material() [7] stbi_load
  [53] stbi__extend_receive(stbi__jpeg*, int) (stb_image.h) [5] lambertian::scatter(ray const&, hit_record const&, vec3&, ray&) const [8] stbi_load_from_file
  [58] stbi__process_marker(stbi__jpeg*, int) (stb_image.h) [3] hitable_list::hit(ray const&, float, float, hit_record&) const
